migenSim/sim.vcd
$scope module HBMReadAndWriteSM $end
$var wire 1 ! aw_valid $end
$var wire 1 " aw_ready $end
$var wire 33 # aw_payload_addr $end
$var wire 1 $ w_valid $end
$var wire 1 % w_ready $end
$var wire 256 & w_payload_data $end
$var wire 32 ' w_payload_strb $end
$var wire 1 ( b_valid $end
$var wire 1 ) b_ready $end
$var wire 2 * b_payload_resp $end
$var wire 1 + ar_valid $end
$var wire 1 , ar_ready $end
$var wire 33 - ar_payload_addr $end
$var wire 1 . r_valid $end
$var wire 1 / r_ready $end
$var wire 2 0 r_payload_resp $end
$var wire 256 1 r_payload_data $end
$var wire 256 2 data_sig $end
$var wire 1 3 perform_write_storage $end
$var wire 1 4 perform_read_storage $end
$var wire 2 5 write_resp_status $end
$var wire 2 6 read_resp_status $end
$var wire 32 7 strb_readwrite_storage $end
$var wire 28 8 address_readwrite_storage $end
$var wire 32 9 data_writein_storage $end
$var wire 32 : data_readout1_status $end
$var wire 32 ; data_readout2_status $end
$var wire 32 < data_readout3_status $end
$var wire 32 = data_readout4_status $end
$var wire 32 > data_readout5_status $end
$var wire 32 ? data_readout6_status $end
$var wire 32 @ data_readout7_status $end
$var wire 32 A data_readout8_status $end
$var wire 1 B exec_read_done_status $end
$var wire 1 C exec_write_done_status $end
$var wire 1 D acknowledge_readwrite_storage $end
$var wire 1 E waitinstruction_fsm_status $end
$var wire 1 F prepwritecommand_fsm_status $end
$var wire 1 G prepwriteresponse_fsm_status $end
$var wire 1 H donewrite_fsm_status $end
$var wire 1 I prepreadcommand_fsm_status $end
$var wire 1 J prepread_fsm_status $end
$var wire 1 K doneread_fsm_status $end
$var wire 176 L state $end
$var wire 192 M next_state $end
$var wire 1 N sys_clk $end
$enddefinitions $end
$dumpvars
$end
#0
0!
0"
b000000000000000000000000000000000 #
0$
0%
b0000000000000000000000000000000000000000000000000000000000000000000000000000000000000000000000000000000000000000000000000000000000000000000000000000000000000000000000000000000000000000000000000000000000000000000000000000000000000000000000000000000000000000 &
b00000000000000000000000000000000 '
0(
0)
b00 *
0+
0,
b000000000000000000000000000000000 -
0.
0/
b00 0
b0000000000000000000000000000000000000000000000000000000000000000000000000000000000000000000000000000000000000000000000000000000000000000000000000000000000000000000000000000000000000000000000000000000000000000000000000000000000000000000000000000000000000000 1
b0000000000000000000000000000000000000000000000000000000000000000000000000000000000000000000000000000000000000000000000000000000000000000000000000000000000000000000000000000000000000000000000000000000000000000000000000000000000000000000000000000000000000000 2
03
04
b00 5
b00 6
b00000000000000000000000000000000 7
b0000000000000000000000000000 8
b00000000000000000000000000000000 9
b00000000000000000000000000000000 :
b00000000000000000000000000000000 ;
b00000000000000000000000000000000 <
b00000000000000000000000000000000 =
b00000000000000000000000000000000 >
b00000000000000000000000000000000 ?
b00000000000000000000000000000000 @
b00000000000000000000000000000000 A
0B
0C
0D
0E
0F
0G
0H
0I
0J
0K
b01010111010000010100100101010100010111110100100101001110010100110101010001010010010101010100001101010100010010010100111101001110 L
b001100000011101001010111010000010100100101010100010111110100100101001110010100110101010001010010010101010100001101010100010010010100111101001110 M
0N
1/
1E
#5
b0011000100111010010100000101001001000101010100000100000101010010010001010101111101010111010100100100100101010100010001010101111101000011010011110100110101001101010000010100111001000100 M
1N
b0000000000000000000000000001 8
13
b11011110101011011011111011101111 9
#10
0N
#15
b010100000101001001000101010100000100000101010010010001010101111101010111010100100100100101010100010001010101111101000011010011110100110101001101010000010100111001000100 L
1$
1!
1N
0/
b0000000000000000000000000000000000000000000000000000000000000000000000000000000000000000000000000000000000000000000000000000000000000000000000000000000000000000000000000000000000000000000000000000000000000000000000000000000011011110101011011011111011101111 &
b000000000000000000000000000100000 #
0E
1F
#20
0N
#25
1N
b001100100011101001000011010011110100111001010100010010010100111001010101010001010101111101010111010100100100100101010100010001010101111101000011010011110100110101001101010000010100111001000100 M
1"
#30
0N
#35
b01000011010011110100111001010100010010010100111001010101010001010101111101010111010100100100100101010100010001010101111101000011010011110100110101001101010000010100111001000100 L
0"
0F
b0011001100111010010100000101001001000101010100000100000101010010010001010101111101010111010111110101001001000101010100110101000001001111010011100101001101000101 M
1%
1N
0!
#40
0N
#45
b010100000101001001000101010100000100000101010010010001010101111101010111010111110101001001000101010100110101000001001111010011100101001101000101 L
0%
b001101000011101001000100010011110100111001000101010111110101011101010010010010010101010001000101 M
1(
1N
0$
1G
#50
0N
#55
1C
b01000100010011110100111001000101010111110101011101010010010010010101010001000101 L
1H
1N
b0000000000000000000000000000000000000000000000000000000000000000000000000000000000000000000000000000000000000000000000000000000000000000000000000000000000000000000000000000000000000000000000000000000000000000000000000000000000000000000000000000000000000000 &
b000000000000000000000000000000000 #
1)
0G
#60
0N
#65
1N
1D
b001100000011101001010111010000010100100101010100010111110100100101001110010100110101010001010010010101010100001101010100010010010100111101001110 M
0(
#70
0N
#75
0C
b01010111010000010100100101010100010111110100100101001110010100110101010001010010010101010100001101010100010010010100111101001110 L
0H
b0011000100111010010100000101001001000101010100000100000101010010010001010101111101010111010100100100100101010100010001010101111101000011010011110100110101001101010000010100111001000100 M
1N
1/
1E
0)
0!
0"
b000000000000000000000000000000000 #
0$
0%
b0000000000000000000000000000000000000000000000000000000000000000000000000000000000000000000000000000000000000000000000000000000000000000000000000000000000000000000000000000000000000000000000000000000000000000000000000000000000000000000000000000000000000000 &
b00000000000000000000000000000000 '
0(
0)
b00 *
0+
0,
b000000000000000000000000000000000 -
0.
0/
b00 0
b0000000000000000000000000000000000000000000000000000000000000000000000000000000000000000000000000000000000000000000000000000000000000000000000000000000000000000000000000000000000000000000000000000000000000000000000000000000000000000000000000000000000000000 1
b0000000000000000000000000000000000000000000000000000000000000000000000000000000000000000000000000000000000000000000000000000000000000000000000000000000000000000000000000000000000000000000000000000000000000000000000000000000000000000000000000000000000000000 2
03
04
b00 5
b00 6
b00000000000000000000000000000000 7
b0000000000000000000000000000 8
b00000000000000000000000000000000 9
b00000000000000000000000000000000 :
b00000000000000000000000000000000 ;
b00000000000000000000000000000000 <
b00000000000000000000000000000000 =
b00000000000000000000000000000000 >
b00000000000000000000000000000000 ?
b00000000000000000000000000000000 @
b00000000000000000000000000000000 A
0B
0C
0D
0E
0F
0G
0H
0I
0J
0K
b01010111010000010100100101010100010111110100100101001110010100110101010001010010010101010100001101010100010010010100111101001110 L
b001100000011101001010111010000010100100101010100010111110100100101001110010100110101010001010010010101010100001101010100010010010100111101001110 M
0N
