ILA_runs_litescope/alveo board/current fsm signals/burst512_end.vcd
$date
	2023-03-06 09:42
$end
$timescale 3333ps $end
$scope dumped_signals $end
$var wire 1 ! soc_usphbm2_axiinterface4_aw_valid $end
$var wire 1 " soc_usphbm2_axiinterface4_aw_ready $end
$var wire 1 # soc_usphbm2_axiinterface4_aw_first $end
$var wire 1 $ soc_usphbm2_axiinterface4_aw_last $end
$var wire 33 % soc_usphbm2_axiinterface4_aw_payload_addr $end
$var wire 2 & soc_usphbm2_axiinterface4_aw_payload_burst $end
$var wire 9 ' soc_usphbm2_axiinterface4_aw_payload_len $end
$var wire 3 ( soc_usphbm2_axiinterface4_aw_payload_size $end
$var wire 1 ) soc_usphbm2_axiinterface4_aw_payload_lock $end
$var wire 3 * soc_usphbm2_axiinterface4_aw_payload_prot $end
$var wire 4 + soc_usphbm2_axiinterface4_aw_payload_cache $end
$var wire 4 , soc_usphbm2_axiinterface4_aw_payload_qos $end
$var wire 4 - soc_usphbm2_axiinterface4_aw_payload_region $end
$var wire 6 . soc_usphbm2_axiinterface4_aw_param_id $end
$var wire 1 / soc_usphbm2_axiinterface4_aw_param_dest $end
$var wire 1 0 soc_usphbm2_axiinterface4_aw_param_user $end
$var wire 1 1 soc_usphbm2_axiinterface4_w_valid $end
$var wire 1 2 soc_usphbm2_axiinterface4_w_ready $end
$var wire 1 3 soc_usphbm2_axiinterface4_w_first $end
$var wire 1 4 soc_usphbm2_axiinterface4_w_last $end
$var wire 256 5 soc_usphbm2_axiinterface4_w_payload_data $end
$var wire 32 6 soc_usphbm2_axiinterface4_w_payload_strb $end
$var wire 1 7 soc_usphbm2_axiinterface4_w_param_id $end
$var wire 1 8 soc_usphbm2_axiinterface4_w_param_dest $end
$var wire 1 9 soc_usphbm2_axiinterface4_w_param_user $end
$var wire 1 : soc_usphbm2_axiinterface4_b_valid $end
$var wire 1 ; soc_usphbm2_axiinterface4_b_ready $end
$var wire 1 < soc_usphbm2_axiinterface4_b_first $end
$var wire 1 = soc_usphbm2_axiinterface4_b_last $end
$var wire 2 > soc_usphbm2_axiinterface4_b_payload_resp $end
$var wire 6 ? soc_usphbm2_axiinterface4_b_param_id $end
$var wire 1 @ soc_usphbm2_axiinterface4_b_param_dest $end
$var wire 1 A soc_usphbm2_axiinterface4_b_param_user $end
$var wire 1 B soc_usphbm2_axiinterface4_ar_valid $end
$var wire 1 C soc_usphbm2_axiinterface4_ar_ready $end
$var wire 1 D soc_usphbm2_axiinterface4_ar_first $end
$var wire 1 E soc_usphbm2_axiinterface4_ar_last $end
$var wire 33 F soc_usphbm2_axiinterface4_ar_payload_addr $end
$var wire 2 G soc_usphbm2_axiinterface4_ar_payload_burst $end
$var wire 9 H soc_usphbm2_axiinterface4_ar_payload_len $end
$var wire 3 I soc_usphbm2_axiinterface4_ar_payload_size $end
$var wire 1 J soc_usphbm2_axiinterface4_ar_payload_lock $end
$var wire 3 K soc_usphbm2_axiinterface4_ar_payload_prot $end
$var wire 4 L soc_usphbm2_axiinterface4_ar_payload_cache $end
$var wire 4 M soc_usphbm2_axiinterface4_ar_payload_qos $end
$var wire 4 N soc_usphbm2_axiinterface4_ar_payload_region $end
$var wire 6 O soc_usphbm2_axiinterface4_ar_param_id $end
$var wire 1 P soc_usphbm2_axiinterface4_ar_param_dest $end
$var wire 1 Q soc_usphbm2_axiinterface4_ar_param_user $end
$var wire 1 R soc_usphbm2_axiinterface4_r_valid $end
$var wire 1 S soc_usphbm2_axiinterface4_r_ready $end
$var wire 1 T soc_usphbm2_axiinterface4_r_first $end
$var wire 1 U soc_usphbm2_axiinterface4_r_last $end
$var wire 2 V soc_usphbm2_axiinterface4_r_payload_resp $end
$var wire 256 W soc_usphbm2_axiinterface4_r_payload_data $end
$var wire 6 X soc_usphbm2_axiinterface4_r_param_id $end
$var wire 1 Y soc_usphbm2_axiinterface4_r_param_dest $end
$var wire 1 Z soc_usphbm2_axiinterface4_r_param_user $end
$var wire 9 [ soc_hbmreadandwritesm4_beat_counter $end
$var wire 1 \ soc_hbmreadandwritesm4_waitinstruction_fsm_status $end
$var wire 1 ] soc_hbmreadandwritesm4_prepwritecommand_fsm_status $end
$var wire 1 ^ soc_hbmreadandwritesm4_beat_fsm_status $end
$var wire 1 _ soc_hbmreadandwritesm4_prepwriteresponse_fsm_status $end
$var wire 1 ` soc_hbmreadandwritesm4_donewrite_fsm_status $end
$var wire 1 a scope_clk $end
$var wire 1 b scope_trig $end
$unscope  $end
$enddefinitions  $end
$dumpvars
bx !
bx "
bx #
bx $
bxxxxxxxxxxxxxxxxxxxxxxxxxxxxxxxxx %
bxx &
bxxxxxxxxx '
bxxx (
bx )
bxxx *
bxxxx +
bxxxx ,
bxxxx -
bxxxxxx .
bx /
bx 0
bx 1
bx 2
bx 3
bx 4
bxxxxxxxxxxxxxxxxxxxxxxxxxxxxxxxxxxxxxxxxxxxxxxxxxxxxxxxxxxxxxxxxxxxxxxxxxxxxxxxxxxxxxxxxxxxxxxxxxxxxxxxxxxxxxxxxxxxxxxxxxxxxxxxxxxxxxxxxxxxxxxxxxxxxxxxxxxxxxxxxxxxxxxxxxxxxxxxxxxxxxxxxxxxxxxxxxxxxxxxxxxxxxxxxxxxxxxxxxxxxxxxxxxxxxxxxxxxxxxxxxxxxxxxxxxxxxxxx 5
bxxxxxxxxxxxxxxxxxxxxxxxxxxxxxxxx 6
bx 7
bx 8
bx 9
bx :
bx ;
bx <
bx =
bxx >
bxxxxxx ?
bx @
bx A
bx B
bx C
bx D
bx E
bxxxxxxxxxxxxxxxxxxxxxxxxxxxxxxxxx F
bxx G
bxxxxxxxxx H
bxxx I
bx J
bxxx K
bxxxx L
bxxxx M
bxxxx N
bxxxxxx O
bx P
bx Q
bx R
bx S
bx T
bx U
bxx V
bxxxxxxxxxxxxxxxxxxxxxxxxxxxxxxxxxxxxxxxxxxxxxxxxxxxxxxxxxxxxxxxxxxxxxxxxxxxxxxxxxxxxxxxxxxxxxxxxxxxxxxxxxxxxxxxxxxxxxxxxxxxxxxxxxxxxxxxxxxxxxxxxxxxxxxxxxxxxxxxxxxxxxxxxxxxxxxxxxxxxxxxxxxxxxxxxxxxxxxxxxxxxxxxxxxxxxxxxxxxxxxxxxxxxxxxxxxxxxxxxxxxxxxxxxxxxxxxx W
bxxxxxx X
bx Y
bx Z
bxxxxxxxxx [
bx \
bx ]
bx ^
bx _
bx `
bx a
bx b
$end
#0
b0 !
b1 "
b0 #
b0 $
b000000000000010000000000000000000 %
b01 &
b011111111 '
b101 (
b0 )
b000 *
b0011 +
b0000 ,
b0000 -
b000000 .
b0 /
b0 0
b1 1
b0 2
b0 3
b0 4
b1000100010001000100010001000100001110111011101110111011101110111011001100110011001100110011001100101010101010101010101010101010101000100010001000100010001000100001100110011001100110011001100110010001000100010001000100010001000000000000000000000000000001111 5
b11111111111111111111111111111111 6
b0 7
b0 8
b0 9
b0 :
b0 ;
b0 <
b0 =
b00 >
b000000 ?
b0 @
b0 A
b0 B
b1 C
b0 D
b0 E
b000000000000000000000000000000000 F
b01 G
b000000000 H
b101 I
b0 J
b000 K
b0011 L
b0000 M
b0000 N
b000000 O
b0 P
b0 Q
b0 R
b0 S
b0 T
b0 U
b00 V
b0000000000000000000000000000000000000000000000000000000000000000000000000000000000000000000000000000000000000000000000000000000000000000000000000000000000000000000000000000000000000000000000000000000000000000000000000000000000000000000000000000000000000000 W
b000000 X
b0 Y
b0 Z
b000001111 [
b0 \
b0 ]
b1 ^
b0 _
b0 `
b1 a
b0 b
#1
b0 a
#2
b1 a
#3
b0 a
#4
b1 a
#5
b0 a
#6
b1 a
#7
b0 a
#8
b1 a
#9
b0 a
#10
b1 a
#11
b0 a
#12
b1 a
#13
b0 a
#14
b1 a
#15
b0 a
#16
b1 a
#17
b0 a
#18
b1 a
#19
b0 a
#20
b1 a
#21
b0 a
#22
b1 a
#23
b0 a
#24
b1 a
#25
b0 a
#26
b1 a
#27
b0 a
#28
b1 a
#29
b0 a
#30
b1 a
#31
b0 a
#32
b1 a
b1 b
#33
b0 a
#34
b1 a
#35
b0 a
#36
b1 a
#37
b0 a
#38
b1 a
#39
b0 a
#40
b1 a
#41
b0 a
#42
b1 a
#43
b0 a
#44
b1 a
#45
b0 a
#46
b1 a
#47
b0 a
#48
b1 a
#49
b0 a
#50
b1 a
#51
b0 a
#52
b1 a
#53
b0 a
#54
b1 a
#55
b0 a
#56
b1 a
#57
b0 a
#58
b1 2
b1 a
#59
b0 a
#60
b1000100010001000100010001000100001110111011101110111011101110111011001100110011001100110011001100101010101010101010101010101010101000100010001000100010001000100001100110011001100110011001100110010001000100010001000100010001000000000000000000000000000010000 5
b000010000 [
b1 a
#61
b0 a
#62
b1000100010001000100010001000100001110111011101110111011101110111011001100110011001100110011001100101010101010101010101010101010101000100010001000100010001000100001100110011001100110011001100110010001000100010001000100010001000000000000000000000000000010001 5
b000010001 [
b1 a
#63
b0 a
#64
b1000100010001000100010001000100001110111011101110111011101110111011001100110011001100110011001100101010101010101010101010101010101000100010001000100010001000100001100110011001100110011001100110010001000100010001000100010001000000000000000000000000000010010 5
b000010010 [
b1 a
#65
b0 a
#66
b1000100010001000100010001000100001110111011101110111011101110111011001100110011001100110011001100101010101010101010101010101010101000100010001000100010001000100001100110011001100110011001100110010001000100010001000100010001000000000000000000000000000010011 5
b000010011 [
b1 a
#67
b0 a
#68
b1000100010001000100010001000100001110111011101110111011101110111011001100110011001100110011001100101010101010101010101010101010101000100010001000100010001000100001100110011001100110011001100110010001000100010001000100010001000000000000000000000000000010100 5
b000010100 [
b1 a
#69
b0 a
#70
b1000100010001000100010001000100001110111011101110111011101110111011001100110011001100110011001100101010101010101010101010101010101000100010001000100010001000100001100110011001100110011001100110010001000100010001000100010001000000000000000000000000000010101 5
b000010101 [
b1 a
#71
b0 a
#72
b1000100010001000100010001000100001110111011101110111011101110111011001100110011001100110011001100101010101010101010101010101010101000100010001000100010001000100001100110011001100110011001100110010001000100010001000100010001000000000000000000000000000010110 5
b000010110 [
b1 a
#73
b0 a
#74
b1000100010001000100010001000100001110111011101110111011101110111011001100110011001100110011001100101010101010101010101010101010101000100010001000100010001000100001100110011001100110011001100110010001000100010001000100010001000000000000000000000000000010111 5
b000010111 [
b1 a
#75
b0 a
#76
b1000100010001000100010001000100001110111011101110111011101110111011001100110011001100110011001100101010101010101010101010101010101000100010001000100010001000100001100110011001100110011001100110010001000100010001000100010001000000000000000000000000000011000 5
b000011000 [
b1 a
#77
b0 a
#78
b1000100010001000100010001000100001110111011101110111011101110111011001100110011001100110011001100101010101010101010101010101010101000100010001000100010001000100001100110011001100110011001100110010001000100010001000100010001000000000000000000000000000011001 5
b000011001 [
b1 a
#79
b0 a
#80
b1000100010001000100010001000100001110111011101110111011101110111011001100110011001100110011001100101010101010101010101010101010101000100010001000100010001000100001100110011001100110011001100110010001000100010001000100010001000000000000000000000000000011010 5
b000011010 [
b1 a
#81
b0 a
#82
b1000100010001000100010001000100001110111011101110111011101110111011001100110011001100110011001100101010101010101010101010101010101000100010001000100010001000100001100110011001100110011001100110010001000100010001000100010001000000000000000000000000000011011 5
b000011011 [
b1 a
#83
b0 a
#84
b1000100010001000100010001000100001110111011101110111011101110111011001100110011001100110011001100101010101010101010101010101010101000100010001000100010001000100001100110011001100110011001100110010001000100010001000100010001000000000000000000000000000011100 5
b000011100 [
b1 a
#85
b0 a
#86
b1000100010001000100010001000100001110111011101110111011101110111011001100110011001100110011001100101010101010101010101010101010101000100010001000100010001000100001100110011001100110011001100110010001000100010001000100010001000000000000000000000000000011101 5
b000011101 [
b1 a
#87
b0 a
#88
b1000100010001000100010001000100001110111011101110111011101110111011001100110011001100110011001100101010101010101010101010101010101000100010001000100010001000100001100110011001100110011001100110010001000100010001000100010001000000000000000000000000000011110 5
b000011110 [
b1 a
#89
b0 a
#90
b1000100010001000100010001000100001110111011101110111011101110111011001100110011001100110011001100101010101010101010101010101010101000100010001000100010001000100001100110011001100110011001100110010001000100010001000100010001000000000000000000000000000011111 5
b000011111 [
b1 a
#91
b0 a
#92
b1000100010001000100010001000100001110111011101110111011101110111011001100110011001100110011001100101010101010101010101010101010101000100010001000100010001000100001100110011001100110011001100110010001000100010001000100010001000000000000000000000000000100000 5
b000100000 [
b1 a
#93
b0 a
#94
b1000100010001000100010001000100001110111011101110111011101110111011001100110011001100110011001100101010101010101010101010101010101000100010001000100010001000100001100110011001100110011001100110010001000100010001000100010001000000000000000000000000000100001 5
b000100001 [
b1 a
#95
b0 a
#96
b1000100010001000100010001000100001110111011101110111011101110111011001100110011001100110011001100101010101010101010101010101010101000100010001000100010001000100001100110011001100110011001100110010001000100010001000100010001000000000000000000000000000100010 5
b000100010 [
b1 a
#97
b0 a
#98
b1000100010001000100010001000100001110111011101110111011101110111011001100110011001100110011001100101010101010101010101010101010101000100010001000100010001000100001100110011001100110011001100110010001000100010001000100010001000000000000000000000000000100011 5
b000100011 [
b1 a
#99
b0 a
#100
b1000100010001000100010001000100001110111011101110111011101110111011001100110011001100110011001100101010101010101010101010101010101000100010001000100010001000100001100110011001100110011001100110010001000100010001000100010001000000000000000000000000000100100 5
b000100100 [
b1 a
#101
b0 a
#102
b1000100010001000100010001000100001110111011101110111011101110111011001100110011001100110011001100101010101010101010101010101010101000100010001000100010001000100001100110011001100110011001100110010001000100010001000100010001000000000000000000000000000100101 5
b000100101 [
b1 a
#103
b0 a
#104
b1000100010001000100010001000100001110111011101110111011101110111011001100110011001100110011001100101010101010101010101010101010101000100010001000100010001000100001100110011001100110011001100110010001000100010001000100010001000000000000000000000000000100110 5
b000100110 [
b1 a
#105
b0 a
#106
b1000100010001000100010001000100001110111011101110111011101110111011001100110011001100110011001100101010101010101010101010101010101000100010001000100010001000100001100110011001100110011001100110010001000100010001000100010001000000000000000000000000000100111 5
b000100111 [
b1 a
#107
b0 a
#108
b1000100010001000100010001000100001110111011101110111011101110111011001100110011001100110011001100101010101010101010101010101010101000100010001000100010001000100001100110011001100110011001100110010001000100010001000100010001000000000000000000000000000101000 5
b000101000 [
b1 a
#109
b0 a
#110
b1000100010001000100010001000100001110111011101110111011101110111011001100110011001100110011001100101010101010101010101010101010101000100010001000100010001000100001100110011001100110011001100110010001000100010001000100010001000000000000000000000000000101001 5
b000101001 [
b1 a
#111
b0 a
#112
b1000100010001000100010001000100001110111011101110111011101110111011001100110011001100110011001100101010101010101010101010101010101000100010001000100010001000100001100110011001100110011001100110010001000100010001000100010001000000000000000000000000000101010 5
b000101010 [
b1 a
#113
b0 a
#114
b1000100010001000100010001000100001110111011101110111011101110111011001100110011001100110011001100101010101010101010101010101010101000100010001000100010001000100001100110011001100110011001100110010001000100010001000100010001000000000000000000000000000101011 5
b000101011 [
b1 a
#115
b0 a
#116
b1000100010001000100010001000100001110111011101110111011101110111011001100110011001100110011001100101010101010101010101010101010101000100010001000100010001000100001100110011001100110011001100110010001000100010001000100010001000000000000000000000000000101100 5
b000101100 [
b1 a
#117
b0 a
#118
b1000100010001000100010001000100001110111011101110111011101110111011001100110011001100110011001100101010101010101010101010101010101000100010001000100010001000100001100110011001100110011001100110010001000100010001000100010001000000000000000000000000000101101 5
b000101101 [
b1 a
#119
b0 a
#120
b1000100010001000100010001000100001110111011101110111011101110111011001100110011001100110011001100101010101010101010101010101010101000100010001000100010001000100001100110011001100110011001100110010001000100010001000100010001000000000000000000000000000101110 5
b000101110 [
b1 a
#121
b0 a
#122
b1000100010001000100010001000100001110111011101110111011101110111011001100110011001100110011001100101010101010101010101010101010101000100010001000100010001000100001100110011001100110011001100110010001000100010001000100010001000000000000000000000000000101111 5
b000101111 [
b1 a
#123
b0 a
#124
b1000100010001000100010001000100001110111011101110111011101110111011001100110011001100110011001100101010101010101010101010101010101000100010001000100010001000100001100110011001100110011001100110010001000100010001000100010001000000000000000000000000000110000 5
b000110000 [
b1 a
#125
b0 a
#126
b1000100010001000100010001000100001110111011101110111011101110111011001100110011001100110011001100101010101010101010101010101010101000100010001000100010001000100001100110011001100110011001100110010001000100010001000100010001000000000000000000000000000110001 5
b000110001 [
b1 a
#127
b0 a
#128
b1000100010001000100010001000100001110111011101110111011101110111011001100110011001100110011001100101010101010101010101010101010101000100010001000100010001000100001100110011001100110011001100110010001000100010001000100010001000000000000000000000000000110010 5
b000110010 [
b1 a
#129
b0 a
#130
b1000100010001000100010001000100001110111011101110111011101110111011001100110011001100110011001100101010101010101010101010101010101000100010001000100010001000100001100110011001100110011001100110010001000100010001000100010001000000000000000000000000000110011 5
b000110011 [
b1 a
#131
b0 a
#132
b1000100010001000100010001000100001110111011101110111011101110111011001100110011001100110011001100101010101010101010101010101010101000100010001000100010001000100001100110011001100110011001100110010001000100010001000100010001000000000000000000000000000110100 5
b000110100 [
b1 a
#133
b0 a
#134
b1000100010001000100010001000100001110111011101110111011101110111011001100110011001100110011001100101010101010101010101010101010101000100010001000100010001000100001100110011001100110011001100110010001000100010001000100010001000000000000000000000000000110101 5
b000110101 [
b1 a
#135
b0 a
#136
b1000100010001000100010001000100001110111011101110111011101110111011001100110011001100110011001100101010101010101010101010101010101000100010001000100010001000100001100110011001100110011001100110010001000100010001000100010001000000000000000000000000000110110 5
b000110110 [
b1 a
#137
b0 a
#138
b1000100010001000100010001000100001110111011101110111011101110111011001100110011001100110011001100101010101010101010101010101010101000100010001000100010001000100001100110011001100110011001100110010001000100010001000100010001000000000000000000000000000110111 5
b000110111 [
b1 a
#139
b0 a
#140
b1000100010001000100010001000100001110111011101110111011101110111011001100110011001100110011001100101010101010101010101010101010101000100010001000100010001000100001100110011001100110011001100110010001000100010001000100010001000000000000000000000000000111000 5
b000111000 [
b1 a
#141
b0 a
#142
b1000100010001000100010001000100001110111011101110111011101110111011001100110011001100110011001100101010101010101010101010101010101000100010001000100010001000100001100110011001100110011001100110010001000100010001000100010001000000000000000000000000000111001 5
b000111001 [
b1 a
#143
b0 a
#144
b1000100010001000100010001000100001110111011101110111011101110111011001100110011001100110011001100101010101010101010101010101010101000100010001000100010001000100001100110011001100110011001100110010001000100010001000100010001000000000000000000000000000111010 5
b000111010 [
b1 a
#145
b0 a
#146
b1000100010001000100010001000100001110111011101110111011101110111011001100110011001100110011001100101010101010101010101010101010101000100010001000100010001000100001100110011001100110011001100110010001000100010001000100010001000000000000000000000000000111011 5
b000111011 [
b1 a
#147
b0 a
#148
b1000100010001000100010001000100001110111011101110111011101110111011001100110011001100110011001100101010101010101010101010101010101000100010001000100010001000100001100110011001100110011001100110010001000100010001000100010001000000000000000000000000000111100 5
b000111100 [
b1 a
#149
b0 a
#150
b1000100010001000100010001000100001110111011101110111011101110111011001100110011001100110011001100101010101010101010101010101010101000100010001000100010001000100001100110011001100110011001100110010001000100010001000100010001000000000000000000000000000111101 5
b000111101 [
b1 a
#151
b0 a
#152
b1000100010001000100010001000100001110111011101110111011101110111011001100110011001100110011001100101010101010101010101010101010101000100010001000100010001000100001100110011001100110011001100110010001000100010001000100010001000000000000000000000000000111110 5
b000111110 [
b1 a
#153
b0 a
#154
b1000100010001000100010001000100001110111011101110111011101110111011001100110011001100110011001100101010101010101010101010101010101000100010001000100010001000100001100110011001100110011001100110010001000100010001000100010001000000000000000000000000000111111 5
b000111111 [
b1 a
#155
b0 a
#156
b1000100010001000100010001000100001110111011101110111011101110111011001100110011001100110011001100101010101010101010101010101010101000100010001000100010001000100001100110011001100110011001100110010001000100010001000100010001000000000000000000000000001000000 5
b001000000 [
b1 a
#157
b0 a
#158
b1000100010001000100010001000100001110111011101110111011101110111011001100110011001100110011001100101010101010101010101010101010101000100010001000100010001000100001100110011001100110011001100110010001000100010001000100010001000000000000000000000000001000001 5
b001000001 [
b1 a
#159
b0 a
#160
b1000100010001000100010001000100001110111011101110111011101110111011001100110011001100110011001100101010101010101010101010101010101000100010001000100010001000100001100110011001100110011001100110010001000100010001000100010001000000000000000000000000001000010 5
b001000010 [
b1 a
#161
b0 a
#162
b1000100010001000100010001000100001110111011101110111011101110111011001100110011001100110011001100101010101010101010101010101010101000100010001000100010001000100001100110011001100110011001100110010001000100010001000100010001000000000000000000000000001000011 5
b001000011 [
b1 a
#163
b0 a
#164
b1000100010001000100010001000100001110111011101110111011101110111011001100110011001100110011001100101010101010101010101010101010101000100010001000100010001000100001100110011001100110011001100110010001000100010001000100010001000000000000000000000000001000100 5
b001000100 [
b1 a
#165
b0 a
#166
b1000100010001000100010001000100001110111011101110111011101110111011001100110011001100110011001100101010101010101010101010101010101000100010001000100010001000100001100110011001100110011001100110010001000100010001000100010001000000000000000000000000001000101 5
b001000101 [
b1 a
#167
b0 a
#168
b1000100010001000100010001000100001110111011101110111011101110111011001100110011001100110011001100101010101010101010101010101010101000100010001000100010001000100001100110011001100110011001100110010001000100010001000100010001000000000000000000000000001000110 5
b001000110 [
b1 a
#169
b0 a
#170
b1000100010001000100010001000100001110111011101110111011101110111011001100110011001100110011001100101010101010101010101010101010101000100010001000100010001000100001100110011001100110011001100110010001000100010001000100010001000000000000000000000000001000111 5
b001000111 [
b1 a
#171
b0 a
#172
b1000100010001000100010001000100001110111011101110111011101110111011001100110011001100110011001100101010101010101010101010101010101000100010001000100010001000100001100110011001100110011001100110010001000100010001000100010001000000000000000000000000001001000 5
b001001000 [
b1 a
#173
b0 a
#174
b1000100010001000100010001000100001110111011101110111011101110111011001100110011001100110011001100101010101010101010101010101010101000100010001000100010001000100001100110011001100110011001100110010001000100010001000100010001000000000000000000000000001001001 5
b001001001 [
b1 a
#175
b0 a
#176
b1000100010001000100010001000100001110111011101110111011101110111011001100110011001100110011001100101010101010101010101010101010101000100010001000100010001000100001100110011001100110011001100110010001000100010001000100010001000000000000000000000000001001010 5
b001001010 [
b1 a
#177
b0 a
#178
b1000100010001000100010001000100001110111011101110111011101110111011001100110011001100110011001100101010101010101010101010101010101000100010001000100010001000100001100110011001100110011001100110010001000100010001000100010001000000000000000000000000001001011 5
b001001011 [
b1 a
#179
b0 a
#180
b1000100010001000100010001000100001110111011101110111011101110111011001100110011001100110011001100101010101010101010101010101010101000100010001000100010001000100001100110011001100110011001100110010001000100010001000100010001000000000000000000000000001001100 5
b001001100 [
b1 a
#181
b0 a
#182
b1000100010001000100010001000100001110111011101110111011101110111011001100110011001100110011001100101010101010101010101010101010101000100010001000100010001000100001100110011001100110011001100110010001000100010001000100010001000000000000000000000000001001101 5
b001001101 [
b1 a
#183
b0 a
#184
b1000100010001000100010001000100001110111011101110111011101110111011001100110011001100110011001100101010101010101010101010101010101000100010001000100010001000100001100110011001100110011001100110010001000100010001000100010001000000000000000000000000001001110 5
b001001110 [
b1 a
#185
b0 a
#186
b1000100010001000100010001000100001110111011101110111011101110111011001100110011001100110011001100101010101010101010101010101010101000100010001000100010001000100001100110011001100110011001100110010001000100010001000100010001000000000000000000000000001001111 5
b001001111 [
b1 a
#187
b0 a
#188
b1000100010001000100010001000100001110111011101110111011101110111011001100110011001100110011001100101010101010101010101010101010101000100010001000100010001000100001100110011001100110011001100110010001000100010001000100010001000000000000000000000000001010000 5
b001010000 [
b1 a
#189
b0 a
#190
b1000100010001000100010001000100001110111011101110111011101110111011001100110011001100110011001100101010101010101010101010101010101000100010001000100010001000100001100110011001100110011001100110010001000100010001000100010001000000000000000000000000001010001 5
b001010001 [
b1 a
#191
b0 a
#192
b1000100010001000100010001000100001110111011101110111011101110111011001100110011001100110011001100101010101010101010101010101010101000100010001000100010001000100001100110011001100110011001100110010001000100010001000100010001000000000000000000000000001010010 5
b001010010 [
b1 a
#193
b0 a
#194
b1000100010001000100010001000100001110111011101110111011101110111011001100110011001100110011001100101010101010101010101010101010101000100010001000100010001000100001100110011001100110011001100110010001000100010001000100010001000000000000000000000000001010011 5
b001010011 [
b1 a
#195
b0 a
#196
b1000100010001000100010001000100001110111011101110111011101110111011001100110011001100110011001100101010101010101010101010101010101000100010001000100010001000100001100110011001100110011001100110010001000100010001000100010001000000000000000000000000001010100 5
b001010100 [
b1 a
#197
b0 a
#198
b1000100010001000100010001000100001110111011101110111011101110111011001100110011001100110011001100101010101010101010101010101010101000100010001000100010001000100001100110011001100110011001100110010001000100010001000100010001000000000000000000000000001010101 5
b001010101 [
b1 a
#199
b0 a
#200
b1000100010001000100010001000100001110111011101110111011101110111011001100110011001100110011001100101010101010101010101010101010101000100010001000100010001000100001100110011001100110011001100110010001000100010001000100010001000000000000000000000000001010110 5
b001010110 [
b1 a
#201
b0 a
#202
b1000100010001000100010001000100001110111011101110111011101110111011001100110011001100110011001100101010101010101010101010101010101000100010001000100010001000100001100110011001100110011001100110010001000100010001000100010001000000000000000000000000001010111 5
b001010111 [
b1 a
#203
b0 a
#204
b1000100010001000100010001000100001110111011101110111011101110111011001100110011001100110011001100101010101010101010101010101010101000100010001000100010001000100001100110011001100110011001100110010001000100010001000100010001000000000000000000000000001011000 5
b001011000 [
b1 a
#205
b0 a
#206
b1000100010001000100010001000100001110111011101110111011101110111011001100110011001100110011001100101010101010101010101010101010101000100010001000100010001000100001100110011001100110011001100110010001000100010001000100010001000000000000000000000000001011001 5
b001011001 [
b1 a
#207
b0 a
#208
b1000100010001000100010001000100001110111011101110111011101110111011001100110011001100110011001100101010101010101010101010101010101000100010001000100010001000100001100110011001100110011001100110010001000100010001000100010001000000000000000000000000001011010 5
b001011010 [
b1 a
#209
b0 a
#210
b1000100010001000100010001000100001110111011101110111011101110111011001100110011001100110011001100101010101010101010101010101010101000100010001000100010001000100001100110011001100110011001100110010001000100010001000100010001000000000000000000000000001011011 5
b001011011 [
b1 a
#211
b0 a
#212
b1000100010001000100010001000100001110111011101110111011101110111011001100110011001100110011001100101010101010101010101010101010101000100010001000100010001000100001100110011001100110011001100110010001000100010001000100010001000000000000000000000000001011100 5
b001011100 [
b1 a
#213
b0 a
#214
b1000100010001000100010001000100001110111011101110111011101110111011001100110011001100110011001100101010101010101010101010101010101000100010001000100010001000100001100110011001100110011001100110010001000100010001000100010001000000000000000000000000001011101 5
b001011101 [
b1 a
#215
b0 a
#216
b1000100010001000100010001000100001110111011101110111011101110111011001100110011001100110011001100101010101010101010101010101010101000100010001000100010001000100001100110011001100110011001100110010001000100010001000100010001000000000000000000000000001011110 5
b001011110 [
b1 a
#217
b0 a
#218
b1000100010001000100010001000100001110111011101110111011101110111011001100110011001100110011001100101010101010101010101010101010101000100010001000100010001000100001100110011001100110011001100110010001000100010001000100010001000000000000000000000000001011111 5
b001011111 [
b1 a
#219
b0 a
#220
b1000100010001000100010001000100001110111011101110111011101110111011001100110011001100110011001100101010101010101010101010101010101000100010001000100010001000100001100110011001100110011001100110010001000100010001000100010001000000000000000000000000001100000 5
b001100000 [
b1 a
#221
b0 a
#222
b1000100010001000100010001000100001110111011101110111011101110111011001100110011001100110011001100101010101010101010101010101010101000100010001000100010001000100001100110011001100110011001100110010001000100010001000100010001000000000000000000000000001100001 5
b001100001 [
b1 a
#223
b0 a
#224
b1000100010001000100010001000100001110111011101110111011101110111011001100110011001100110011001100101010101010101010101010101010101000100010001000100010001000100001100110011001100110011001100110010001000100010001000100010001000000000000000000000000001100010 5
b001100010 [
b1 a
#225
b0 a
#226
b1000100010001000100010001000100001110111011101110111011101110111011001100110011001100110011001100101010101010101010101010101010101000100010001000100010001000100001100110011001100110011001100110010001000100010001000100010001000000000000000000000000001100011 5
b001100011 [
b1 a
#227
b0 a
#228
b1000100010001000100010001000100001110111011101110111011101110111011001100110011001100110011001100101010101010101010101010101010101000100010001000100010001000100001100110011001100110011001100110010001000100010001000100010001000000000000000000000000001100100 5
b001100100 [
b1 a
#229
b0 a
#230
b1000100010001000100010001000100001110111011101110111011101110111011001100110011001100110011001100101010101010101010101010101010101000100010001000100010001000100001100110011001100110011001100110010001000100010001000100010001000000000000000000000000001100101 5
b001100101 [
b1 a
#231
b0 a
#232
b1000100010001000100010001000100001110111011101110111011101110111011001100110011001100110011001100101010101010101010101010101010101000100010001000100010001000100001100110011001100110011001100110010001000100010001000100010001000000000000000000000000001100110 5
b001100110 [
b1 a
#233
b0 a
#234
b1000100010001000100010001000100001110111011101110111011101110111011001100110011001100110011001100101010101010101010101010101010101000100010001000100010001000100001100110011001100110011001100110010001000100010001000100010001000000000000000000000000001100111 5
b001100111 [
b1 a
#235
b0 a
#236
b1000100010001000100010001000100001110111011101110111011101110111011001100110011001100110011001100101010101010101010101010101010101000100010001000100010001000100001100110011001100110011001100110010001000100010001000100010001000000000000000000000000001101000 5
b001101000 [
b1 a
#237
b0 a
#238
b1000100010001000100010001000100001110111011101110111011101110111011001100110011001100110011001100101010101010101010101010101010101000100010001000100010001000100001100110011001100110011001100110010001000100010001000100010001000000000000000000000000001101001 5
b001101001 [
b1 a
#239
b0 a
#240
b1000100010001000100010001000100001110111011101110111011101110111011001100110011001100110011001100101010101010101010101010101010101000100010001000100010001000100001100110011001100110011001100110010001000100010001000100010001000000000000000000000000001101010 5
b001101010 [
b1 a
#241
b0 a
#242
b1000100010001000100010001000100001110111011101110111011101110111011001100110011001100110011001100101010101010101010101010101010101000100010001000100010001000100001100110011001100110011001100110010001000100010001000100010001000000000000000000000000001101011 5
b001101011 [
b1 a
#243
b0 a
#244
b1000100010001000100010001000100001110111011101110111011101110111011001100110011001100110011001100101010101010101010101010101010101000100010001000100010001000100001100110011001100110011001100110010001000100010001000100010001000000000000000000000000001101100 5
b001101100 [
b1 a
#245
b0 a
#246
b1000100010001000100010001000100001110111011101110111011101110111011001100110011001100110011001100101010101010101010101010101010101000100010001000100010001000100001100110011001100110011001100110010001000100010001000100010001000000000000000000000000001101101 5
b001101101 [
b1 a
#247
b0 a
