ILA_runs_litescope/alveo board/current fsm signals/burst256_beginning.vcd
$date
	2023-03-06 09:36
$end
$timescale 3333ps $end
$scope dumped_signals $end
$var wire 1 ! soc_usphbm2_axiinterface4_aw_valid $end
$var wire 1 " soc_usphbm2_axiinterface4_aw_ready $end
$var wire 1 # soc_usphbm2_axiinterface4_aw_first $end
$var wire 1 $ soc_usphbm2_axiinterface4_aw_last $end
$var wire 33 % soc_usphbm2_axiinterface4_aw_payload_addr $end
$var wire 2 & soc_usphbm2_axiinterface4_aw_payload_burst $end
$var wire 9 ' soc_usphbm2_axiinterface4_aw_payload_len $end
$var wire 3 ( soc_usphbm2_axiinterface4_aw_payload_size $end
$var wire 1 ) soc_usphbm2_axiinterface4_aw_payload_lock $end
$var wire 3 * soc_usphbm2_axiinterface4_aw_payload_prot $end
$var wire 4 + soc_usphbm2_axiinterface4_aw_payload_cache $end
$var wire 4 , soc_usphbm2_axiinterface4_aw_payload_qos $end
$var wire 4 - soc_usphbm2_axiinterface4_aw_payload_region $end
$var wire 6 . soc_usphbm2_axiinterface4_aw_param_id $end
$var wire 1 / soc_usphbm2_axiinterface4_aw_param_dest $end
$var wire 1 0 soc_usphbm2_axiinterface4_aw_param_user $end
$var wire 1 1 soc_usphbm2_axiinterface4_w_valid $end
$var wire 1 2 soc_usphbm2_axiinterface4_w_ready $end
$var wire 1 3 soc_usphbm2_axiinterface4_w_first $end
$var wire 1 4 soc_usphbm2_axiinterface4_w_last $end
$var wire 256 5 soc_usphbm2_axiinterface4_w_payload_data $end
$var wire 32 6 soc_usphbm2_axiinterface4_w_payload_strb $end
$var wire 1 7 soc_usphbm2_axiinterface4_w_param_id $end
$var wire 1 8 soc_usphbm2_axiinterface4_w_param_dest $end
$var wire 1 9 soc_usphbm2_axiinterface4_w_param_user $end
$var wire 1 : soc_usphbm2_axiinterface4_b_valid $end
$var wire 1 ; soc_usphbm2_axiinterface4_b_ready $end
$var wire 1 < soc_usphbm2_axiinterface4_b_first $end
$var wire 1 = soc_usphbm2_axiinterface4_b_last $end
$var wire 2 > soc_usphbm2_axiinterface4_b_payload_resp $end
$var wire 6 ? soc_usphbm2_axiinterface4_b_param_id $end
$var wire 1 @ soc_usphbm2_axiinterface4_b_param_dest $end
$var wire 1 A soc_usphbm2_axiinterface4_b_param_user $end
$var wire 1 B soc_usphbm2_axiinterface4_ar_valid $end
$var wire 1 C soc_usphbm2_axiinterface4_ar_ready $end
$var wire 1 D soc_usphbm2_axiinterface4_ar_first $end
$var wire 1 E soc_usphbm2_axiinterface4_ar_last $end
$var wire 33 F soc_usphbm2_axiinterface4_ar_payload_addr $end
$var wire 2 G soc_usphbm2_axiinterface4_ar_payload_burst $end
$var wire 9 H soc_usphbm2_axiinterface4_ar_payload_len $end
$var wire 3 I soc_usphbm2_axiinterface4_ar_payload_size $end
$var wire 1 J soc_usphbm2_axiinterface4_ar_payload_lock $end
$var wire 3 K soc_usphbm2_axiinterface4_ar_payload_prot $end
$var wire 4 L soc_usphbm2_axiinterface4_ar_payload_cache $end
$var wire 4 M soc_usphbm2_axiinterface4_ar_payload_qos $end
$var wire 4 N soc_usphbm2_axiinterface4_ar_payload_region $end
$var wire 6 O soc_usphbm2_axiinterface4_ar_param_id $end
$var wire 1 P soc_usphbm2_axiinterface4_ar_param_dest $end
$var wire 1 Q soc_usphbm2_axiinterface4_ar_param_user $end
$var wire 1 R soc_usphbm2_axiinterface4_r_valid $end
$var wire 1 S soc_usphbm2_axiinterface4_r_ready $end
$var wire 1 T soc_usphbm2_axiinterface4_r_first $end
$var wire 1 U soc_usphbm2_axiinterface4_r_last $end
$var wire 2 V soc_usphbm2_axiinterface4_r_payload_resp $end
$var wire 256 W soc_usphbm2_axiinterface4_r_payload_data $end
$var wire 6 X soc_usphbm2_axiinterface4_r_param_id $end
$var wire 1 Y soc_usphbm2_axiinterface4_r_param_dest $end
$var wire 1 Z soc_usphbm2_axiinterface4_r_param_user $end
$var wire 9 [ soc_hbmreadandwritesm4_beat_counter $end
$var wire 1 \ soc_hbmreadandwritesm4_waitinstruction_fsm_status $end
$var wire 1 ] soc_hbmreadandwritesm4_prepwritecommand_fsm_status $end
$var wire 1 ^ soc_hbmreadandwritesm4_beat_fsm_status $end
$var wire 1 _ soc_hbmreadandwritesm4_prepwriteresponse_fsm_status $end
$var wire 1 ` soc_hbmreadandwritesm4_donewrite_fsm_status $end
$var wire 1 a scope_clk $end
$var wire 1 b scope_trig $end
$unscope  $end
$enddefinitions  $end
$dumpvars
bx !
bx "
bx #
bx $
bxxxxxxxxxxxxxxxxxxxxxxxxxxxxxxxxx %
bxx &
bxxxxxxxxx '
bxxx (
bx )
bxxx *
bxxxx +
bxxxx ,
bxxxx -
bxxxxxx .
bx /
bx 0
bx 1
bx 2
bx 3
bx 4
bxxxxxxxxxxxxxxxxxxxxxxxxxxxxxxxxxxxxxxxxxxxxxxxxxxxxxxxxxxxxxxxxxxxxxxxxxxxxxxxxxxxxxxxxxxxxxxxxxxxxxxxxxxxxxxxxxxxxxxxxxxxxxxxxxxxxxxxxxxxxxxxxxxxxxxxxxxxxxxxxxxxxxxxxxxxxxxxxxxxxxxxxxxxxxxxxxxxxxxxxxxxxxxxxxxxxxxxxxxxxxxxxxxxxxxxxxxxxxxxxxxxxxxxxxxxxxxxx 5
bxxxxxxxxxxxxxxxxxxxxxxxxxxxxxxxx 6
bx 7
bx 8
bx 9
bx :
bx ;
bx <
bx =
bxx >
bxxxxxx ?
bx @
bx A
bx B
bx C
bx D
bx E
bxxxxxxxxxxxxxxxxxxxxxxxxxxxxxxxxx F
bxx G
bxxxxxxxxx H
bxxx I
bx J
bxxx K
bxxxx L
bxxxx M
bxxxx N
bxxxxxx O
bx P
bx Q
bx R
bx S
bx T
bx U
bxx V
bxxxxxxxxxxxxxxxxxxxxxxxxxxxxxxxxxxxxxxxxxxxxxxxxxxxxxxxxxxxxxxxxxxxxxxxxxxxxxxxxxxxxxxxxxxxxxxxxxxxxxxxxxxxxxxxxxxxxxxxxxxxxxxxxxxxxxxxxxxxxxxxxxxxxxxxxxxxxxxxxxxxxxxxxxxxxxxxxxxxxxxxxxxxxxxxxxxxxxxxxxxxxxxxxxxxxxxxxxxxxxxxxxxxxxxxxxxxxxxxxxxxxxxxxxxxxxxxx W
bxxxxxx X
bx Y
bx Z
bxxxxxxxxx [
bx \
bx ]
bx ^
bx _
bx `
bx a
bx b
$end
#0
b0 !
b1 "
b0 #
b0 $
b000000000000000000000000000000000 %
b01 &
b011111111 '
b101 (
b0 )
b000 *
b0011 +
b0000 ,
b0000 -
b000000 .
b0 /
b0 0
b0 1
b1 2
b0 3
b0 4
b0000000000000000000000000000000000000000000000000000000000000000000000000000000000000000000000000000000000000000000000000000000000000000000000000000000000000000000000000000000000000000000000000000000000000000000000000000000000000000000000000000000000000000 5
b00000000000000000000000000000000 6
b0 7
b0 8
b0 9
b0 :
b0 ;
b0 <
b0 =
b00 >
b000000 ?
b0 @
b0 A
b0 B
b1 C
b0 D
b0 E
b000000000000000000000000000000000 F
b01 G
b000000000 H
b101 I
b0 J
b000 K
b0011 L
b0000 M
b0000 N
b000000 O
b0 P
b0 Q
b0 R
b0 S
b0 T
b0 U
b00 V
b0000000000000000000000000000000000000000000000000000000000000000000000000000000000000000000000000000000000000000000000000000000000000000000000000000000000000000000000000000000000000000000000000000000000000000000000000000000000000000000000000000000000000000 W
b000000 X
b0 Y
b0 Z
b000000000 [
b1 \
b0 ]
b0 ^
b0 _
b0 `
b1 a
b0 b
#1
b0 a
#2
b1 a
#3
b0 a
#4
b1 a
#5
b0 a
#6
b1 a
#7
b0 a
#8
b1 a
#9
b0 a
#10
b1 a
#11
b0 a
#12
b1 a
#13
b0 a
#14
b1 a
#15
b0 a
#16
b1 a
#17
b0 a
#18
b1 a
#19
b0 a
#20
b1 a
#21
b0 a
#22
b1 a
#23
b0 a
#24
b1 a
#25
b0 a
#26
b1 a
#27
b0 a
#28
b1 a
#29
b0 a
#30
b1 a
#31
b0 a
#32
b1 a
b1 b
#33
b0 a
#34
b1 a
#35
b0 a
#36
b1 a
#37
b0 a
#38
b1 a
#39
b0 a
#40
b1 a
#41
b0 a
#42
b1 a
#43
b0 a
#44
b1 a
#45
b0 a
#46
b1 a
#47
b0 a
#48
b1 a
#49
b0 a
#50
b1 a
#51
b0 a
#52
b1 a
#53
b0 a
#54
b1 a
#55
b0 a
#56
b1 a
#57
b0 a
#58
b1 a
#59
b0 a
#60
b1 !
b000000000000010000000000000000000 %
b1 1
b1000100010001000100010001000100001110111011101110111011101110111011001100110011001100110011001100101010101010101010101010101010101000100010001000100010001000100001100110011001100110011001100110010001000100010001000100010001000000000000000000000000000000000 5
b11111111111111111111111111111111 6
b0 \
b1 ]
b1 a
#61
b0 a
#62
b0 !
b1000100010001000100010001000100001110111011101110111011101110111011001100110011001100110011001100101010101010101010101010101010101000100010001000100010001000100001100110011001100110011001100110010001000100010001000100010001000000000000000000000000000000001 5
b000000001 [
b0 ]
b1 ^
b1 a
#63
b0 a
#64
b1000100010001000100010001000100001110111011101110111011101110111011001100110011001100110011001100101010101010101010101010101010101000100010001000100010001000100001100110011001100110011001100110010001000100010001000100010001000000000000000000000000000000010 5
b000000010 [
b1 a
#65
b0 a
#66
b1000100010001000100010001000100001110111011101110111011101110111011001100110011001100110011001100101010101010101010101010101010101000100010001000100010001000100001100110011001100110011001100110010001000100010001000100010001000000000000000000000000000000011 5
b000000011 [
b1 a
#67
b0 a
#68
b1000100010001000100010001000100001110111011101110111011101110111011001100110011001100110011001100101010101010101010101010101010101000100010001000100010001000100001100110011001100110011001100110010001000100010001000100010001000000000000000000000000000000100 5
b000000100 [
b1 a
#69
b0 a
#70
b1000100010001000100010001000100001110111011101110111011101110111011001100110011001100110011001100101010101010101010101010101010101000100010001000100010001000100001100110011001100110011001100110010001000100010001000100010001000000000000000000000000000000101 5
b000000101 [
b1 a
#71
b0 a
#72
b1000100010001000100010001000100001110111011101110111011101110111011001100110011001100110011001100101010101010101010101010101010101000100010001000100010001000100001100110011001100110011001100110010001000100010001000100010001000000000000000000000000000000110 5
b000000110 [
b1 a
#73
b0 a
#74
b1000100010001000100010001000100001110111011101110111011101110111011001100110011001100110011001100101010101010101010101010101010101000100010001000100010001000100001100110011001100110011001100110010001000100010001000100010001000000000000000000000000000000111 5
b000000111 [
b1 a
#75
b0 a
#76
b1000100010001000100010001000100001110111011101110111011101110111011001100110011001100110011001100101010101010101010101010101010101000100010001000100010001000100001100110011001100110011001100110010001000100010001000100010001000000000000000000000000000001000 5
b000001000 [
b1 a
#77
b0 a
#78
b1000100010001000100010001000100001110111011101110111011101110111011001100110011001100110011001100101010101010101010101010101010101000100010001000100010001000100001100110011001100110011001100110010001000100010001000100010001000000000000000000000000000001001 5
b000001001 [
b1 a
#79
b0 a
#80
b1000100010001000100010001000100001110111011101110111011101110111011001100110011001100110011001100101010101010101010101010101010101000100010001000100010001000100001100110011001100110011001100110010001000100010001000100010001000000000000000000000000000001010 5
b000001010 [
b1 a
#81
b0 a
#82
b1000100010001000100010001000100001110111011101110111011101110111011001100110011001100110011001100101010101010101010101010101010101000100010001000100010001000100001100110011001100110011001100110010001000100010001000100010001000000000000000000000000000001011 5
b000001011 [
b1 a
#83
b0 a
#84
b1000100010001000100010001000100001110111011101110111011101110111011001100110011001100110011001100101010101010101010101010101010101000100010001000100010001000100001100110011001100110011001100110010001000100010001000100010001000000000000000000000000000001100 5
b000001100 [
b1 a
#85
b0 a
#86
b1000100010001000100010001000100001110111011101110111011101110111011001100110011001100110011001100101010101010101010101010101010101000100010001000100010001000100001100110011001100110011001100110010001000100010001000100010001000000000000000000000000000001101 5
b000001101 [
b1 a
#87
b0 a
#88
b1000100010001000100010001000100001110111011101110111011101110111011001100110011001100110011001100101010101010101010101010101010101000100010001000100010001000100001100110011001100110011001100110010001000100010001000100010001000000000000000000000000000001110 5
b000001110 [
b1 a
#89
b0 a
#90
b0 2
b1000100010001000100010001000100001110111011101110111011101110111011001100110011001100110011001100101010101010101010101010101010101000100010001000100010001000100001100110011001100110011001100110010001000100010001000100010001000000000000000000000000000001111 5
b000001111 [
b1 a
#91
b0 a
#92
b1 a
#93
b0 a
#94
b1 a
#95
b0 a
#96
b1 a
#97
b0 a
#98
b1 a
#99
b0 a
#100
b1 a
#101
b0 a
#102
b1 a
#103
b0 a
#104
b1 a
#105
b0 a
#106
b1 a
#107
b0 a
#108
b1 a
#109
b0 a
#110
b1 a
#111
b0 a
#112
b1 a
#113
b0 a
#114
b1 a
#115
b0 a
#116
b1 a
#117
b0 a
#118
b1 a
#119
b0 a
#120
b1 a
#121
b0 a
#122
b1 a
#123
b0 a
#124
b1 a
#125
b0 a
#126
b1 a
#127
b0 a
#128
b1 a
#129
b0 a
#130
b1 a
#131
b0 a
#132
b1 a
#133
b0 a
#134
b1 a
#135
b0 a
#136
b1 a
#137
b0 a
#138
b1 a
#139
b0 a
#140
b1 a
#141
b0 a
#142
b1 a
#143
b0 a
#144
b1 a
#145
b0 a
#146
b1 a
#147
b0 a
#148
b1 a
#149
b0 a
#150
b1 a
#151
b0 a
#152
b1 a
#153
b0 a
#154
b1 a
#155
b0 a
#156
b1 a
#157
b0 a
#158
b1 a
#159
b0 a
#160
b1 a
#161
b0 a
#162
b1 a
#163
b0 a
#164
b1 a
#165
b0 a
#166
b1 a
#167
b0 a
#168
b1 a
#169
b0 a
#170
b1 a
#171
b0 a
#172
b1 a
#173
b0 a
#174
b1 a
#175
b0 a
#176
b1 a
#177
b0 a
#178
b1 a
#179
b0 a
#180
b1 a
#181
b0 a
#182
b1 a
#183
b0 a
#184
b1 a
#185
b0 a
#186
b1 a
#187
b0 a
#188
b1 a
#189
b0 a
#190
b1 a
#191
b0 a
#192
b1 a
#193
b0 a
#194
b1 a
#195
b0 a
#196
b1 a
#197
b0 a
#198
b1 a
#199
b0 a
#200
b1 a
#201
b0 a
#202
b1 a
#203
b0 a
#204
b1 a
#205
b0 a
#206
b1 a
#207
b0 a
#208
b1 a
#209
b0 a
#210
b1 a
#211
b0 a
#212
b1 a
#213
b0 a
#214
b1 a
#215
b0 a
#216
b1 a
#217
b0 a
#218
b1 a
#219
b0 a
#220
b1 a
#221
b0 a
#222
b1 a
#223
b0 a
#224
b1 a
#225
b0 a
#226
b1 a
#227
b0 a
#228
b1 a
#229
b0 a
#230
b1 a
#231
b0 a
#232
b1 a
#233
b0 a
#234
b1 a
#235
b0 a
#236
b1 a
#237
b0 a
#238
b1 a
#239
b0 a
#240
b1 a
#241
b0 a
#242
b1 a
#243
b0 a
#244
b1 a
#245
b0 a
#246
b1 a
#247
b0 a
#248
b1 a
#249
b0 a
#250
b1 a
#251
b0 a
#252
b1 a
#253
b0 a
#254
b1 a
#255
b0 a
#256
b1 a
#257
b0 a
#258
b1 a
#259
b0 a
#260
b1 a
#261
b0 a
#262
b1 a
#263
b0 a
#264
b1 a
#265
b0 a
#266
b1 a
#267
b0 a
#268
b1 a
#269
b0 a
#270
b1 a
#271
b0 a
#272
b1 a
#273
b0 a
#274
b1 a
#275
b0 a
#276
b1 a
#277
b0 a
#278
b1 a
#279
b0 a
#280
b1 a
#281
b0 a
#282
b1 a
#283
b0 a
#284
b1 a
#285
b0 a
#286
b1 a
#287
b0 a
#288
b1 a
#289
b0 a
#290
b1 a
#291
b0 a
#292
b1 a
#293
b0 a
#294
b1 a
#295
b0 a
#296
b1 a
#297
b0 a
#298
b1 a
#299
b0 a
#300
b1 a
#301
b0 a
#302
b1 a
#303
b0 a
#304
b1 a
#305
b0 a
#306
b1 a
#307
b0 a
#308
b1 a
#309
b0 a
#310
b1 a
#311
b0 a
#312
b1 a
#313
b0 a
#314
b1 a
#315
b0 a
#316
b1 a
#317
b0 a
#318
b1 a
#319
b0 a
#320
b1 a
#321
b0 a
#322
b1 a
#323
b0 a
#324
b1 a
#325
b0 a
#326
b1 a
#327
b0 a
#328
b1 a
#329
b0 a
#330
b1 a
#331
b0 a
#332
b1 a
#333
b0 a
#334
b1 a
#335
b0 a
#336
b1 a
#337
b0 a
#338
b1 a
#339
b0 a
#340
b1 a
#341
b0 a
#342
b1 a
#343
b0 a
#344
b1 a
#345
b0 a
#346
b1 a
#347
b0 a
#348
b1 a
#349
b0 a
#350
b1 a
#351
b0 a
#352
b1 a
#353
b0 a
#354
b1 a
#355
b0 a
#356
b1 a
#357
b0 a
#358
b1 a
#359
b0 a
#360
b1 a
#361
b0 a
#362
b1 a
#363
b0 a
#364
b1 a
#365
b0 a
#366
b1 a
#367
b0 a
#368
b1 a
#369
b0 a
#370
b1 a
#371
b0 a
#372
b1 a
#373
b0 a
#374
b1 a
#375
b0 a
#376
b1 a
#377
b0 a
#378
b1 a
#379
b0 a
#380
b1 a
#381
b0 a
#382
b1 a
#383
b0 a
#384
b1 a
#385
b0 a
#386
b1 a
#387
b0 a
#388
b1 a
#389
b0 a
#390
b1 a
#391
b0 a
#392
b1 a
#393
b0 a
#394
b1 a
#395
b0 a
#396
b1 a
#397
b0 a
#398
b1 a
#399
b0 a
#400
b1 a
#401
b0 a
#402
b1 a
#403
b0 a
#404
b1 a
#405
b0 a
#406
b1 a
#407
b0 a
#408
b1 a
#409
b0 a
#410
b1 a
#411
b0 a
#412
b1 a
#413
b0 a
#414
b1 a
#415
b0 a
#416
b1 a
#417
b0 a
#418
b1 a
#419
b0 a
#420
b1 a
#421
b0 a
#422
b1 a
#423
b0 a
#424
b1 a
#425
b0 a
#426
b1 a
#427
b0 a
#428
b1 a
#429
b0 a
#430
b1 a
#431
b0 a
#432
b1 a
#433
b0 a
#434
b1 a
#435
b0 a
#436
b1 a
#437
b0 a
#438
b1 a
#439
b0 a
#440
b1 a
#441
b0 a
#442
b1 a
#443
b0 a
#444
b1 a
#445
b0 a
#446
b1 a
#447
b0 a
#448
b1 a
#449
b0 a
#450
b1 a
#451
b0 a
#452
b1 a
#453
b0 a
#454
b1 a
#455
b0 a
#456
b1 a
#457
b0 a
#458
b1 a
#459
b0 a
#460
b1 a
#461
b0 a
#462
b1 a
#463
b0 a
#464
b1 a
#465
b0 a
#466
b1 a
#467
b0 a
#468
b1 a
#469
b0 a
#470
b1 a
#471
b0 a
#472
b1 a
#473
b0 a
#474
b1 a
#475
b0 a
#476
b1 a
#477
b0 a
#478
b1 a
#479
b0 a
#480
b1 a
#481
b0 a
#482
b1 a
#483
b0 a
#484
b1 a
#485
b0 a
#486
b1 a
#487
b0 a
#488
b1 a
#489
b0 a
#490
b1 a
#491
b0 a
#492
b1 a
#493
b0 a
#494
b1 a
#495
b0 a
#496
b1 a
#497
b0 a
#498
b1 a
#499
b0 a
#500
b1 a
#501
b0 a
#502
b1 a
#503
b0 a
#504
b1 a
#505
b0 a
#506
b1 a
#507
b0 a
#508
b1 a
#509
b0 a
#510
b1 a
#511
b0 a
#512
b1 a
#513
b0 a
#514
b1 a
#515
b0 a
#516
b1 a
#517
b0 a
#518
b1 a
#519
b0 a
#520
b1 a
#521
b0 a
#522
b1 a
#523
b0 a
#524
b1 a
#525
b0 a
#526
b1 a
#527
b0 a
#528
b1 a
#529
b0 a
#530
b1 a
#531
b0 a
#532
b1 a
#533
b0 a
#534
b1 a
#535
b0 a
#536
b1 a
#537
b0 a
#538
b1 a
#539
b0 a
#540
b1 a
#541
b0 a
#542
b1 a
#543
b0 a
#544
b1 a
#545
b0 a
#546
b1 a
#547
b0 a
#548
b1 a
#549
b0 a
#550
b1 a
#551
b0 a
#552
b1 a
#553
b0 a
#554
b1 a
#555
b0 a
#556
b1 a
#557
b0 a
#558
b1 a
#559
b0 a
#560
b1 a
#561
b0 a
#562
b1 a
#563
b0 a
#564
b1 a
#565
b0 a
#566
b1 a
#567
b0 a
#568
b1 a
#569
b0 a
#570
b1 a
#571
b0 a
#572
b1 a
#573
b0 a
#574
b1 a
#575
b0 a
#576
b1 a
#577
b0 a
#578
b1 a
#579
b0 a
#580
b1 a
#581
b0 a
#582
b1 a
#583
b0 a
#584
b1 a
#585
b0 a
#586
b1 a
#587
b0 a
#588
b1 a
#589
b0 a
#590
b1 a
#591
b0 a
#592
b1 a
#593
b0 a
#594
b1 a
#595
b0 a
#596
b1 a
#597
b0 a
#598
b1 a
#599
b0 a
#600
b1 a
#601
b0 a
#602
b1 a
#603
b0 a
#604
b1 a
#605
b0 a
#606
b1 a
#607
b0 a
#608
b1 a
#609
b0 a
#610
b1 a
#611
b0 a
#612
b1 a
#613
b0 a
#614
b1 a
#615
b0 a
#616
b1 a
#617
b0 a
#618
b1 a
#619
b0 a
#620
b1 a
#621
b0 a
#622
b1 a
#623
b0 a
#624
b1 a
#625
b0 a
#626
b1 a
#627
b0 a
#628
b1 a
#629
b0 a
#630
b1 a
#631
b0 a
#632
b1 a
#633
b0 a
#634
b1 a
#635
b0 a
#636
b1 a
#637
b0 a
#638
b1 a
#639
b0 a
#640
b1 a
#641
b0 a
#642
b1 a
#643
b0 a
#644
b1 a
#645
b0 a
#646
b1 a
#647
b0 a
#648
b1 a
#649
b0 a
#650
b1 a
#651
b0 a
#652
b1 a
#653
b0 a
#654
b1 a
#655
b0 a
#656
b1 a
#657
b0 a
#658
b1 a
#659
b0 a
#660
b1 a
#661
b0 a
#662
b1 a
#663
b0 a
#664
b1 a
#665
b0 a
#666
b1 a
#667
b0 a
#668
b1 a
#669
b0 a
#670
b1 a
#671
b0 a
#672
b1 a
#673
b0 a
#674
b1 a
#675
b0 a
#676
b1 a
#677
b0 a
#678
b1 a
#679
b0 a
#680
b1 a
#681
b0 a
#682
b1 a
#683
b0 a
#684
b1 a
#685
b0 a
#686
b1 a
#687
b0 a
#688
b1 a
#689
b0 a
#690
b1 a
#691
b0 a
#692
b1 a
#693
b0 a
#694
b1 a
#695
b0 a
#696
b1 a
#697
b0 a
#698
b1 a
#699
b0 a
#700
b1 a
#701
b0 a
#702
b1 a
#703
b0 a
#704
b1 a
#705
b0 a
#706
b1 a
#707
b0 a
#708
b1 a
#709
b0 a
#710
b1 a
#711
b0 a
#712
b1 a
#713
b0 a
#714
b1 a
#715
b0 a
#716
b1 a
#717
b0 a
#718
b1 a
#719
b0 a
#720
b1 a
#721
b0 a
#722
b1 a
#723
b0 a
#724
b1 a
#725
b0 a
#726
b1 a
#727
b0 a
#728
b1 a
#729
b0 a
#730
b1 a
#731
b0 a
#732
b1 a
#733
b0 a
#734
b1 a
#735
b0 a
#736
b1 a
#737
b0 a
#738
b1 a
#739
b0 a
#740
b1 a
#741
b0 a
#742
b1 a
#743
b0 a
#744
b1 a
#745
b0 a
#746
b1 a
#747
b0 a
#748
b1 a
#749
b0 a
#750
b1 a
#751
b0 a
#752
b1 a
#753
b0 a
#754
b1 a
#755
b0 a
#756
b1 a
#757
b0 a
#758
b1 a
#759
b0 a
#760
b1 a
#761
b0 a
#762
b1 a
#763
b0 a
#764
b1 a
#765
b0 a
#766
b1 a
#767
b0 a
#768
b1 a
#769
b0 a
#770
b1 a
#771
b0 a
#772
b1 a
#773
b0 a
#774
b1 a
#775
b0 a
#776
b1 a
#777
b0 a
#778
b1 a
#779
b0 a
#780
b1 a
#781
b0 a
#782
b1 a
#783
b0 a
#784
b1 a
#785
b0 a
#786
b1 a
#787
b0 a
#788
b1 a
#789
b0 a
#790
b1 a
#791
b0 a
#792
b1 a
#793
b0 a
#794
b1 a
#795
b0 a
#796
b1 a
#797
b0 a
#798
b1 a
#799
b0 a
#800
b1 a
#801
b0 a
#802
b1 a
#803
b0 a
#804
b1 a
#805
b0 a
#806
b1 a
#807
b0 a
#808
b1 a
#809
b0 a
#810
b1 a
#811
b0 a
#812
b1 a
#813
b0 a
#814
b1 a
#815
b0 a
#816
b1 a
#817
b0 a
#818
b1 a
#819
b0 a
#820
b1 a
#821
b0 a
#822
b1 a
#823
b0 a
#824
b1 a
#825
b0 a
#826
b1 a
#827
b0 a
#828
b1 a
#829
b0 a
#830
b1 a
#831
b0 a
#832
b1 a
#833
b0 a
#834
b1 a
#835
b0 a
#836
b1 a
#837
b0 a
#838
b1 a
#839
b0 a
#840
b1 a
#841
b0 a
#842
b1 a
#843
b0 a
#844
b1 a
#845
b0 a
#846
b1 a
#847
b0 a
#848
b1 a
#849
b0 a
#850
b1 a
#851
b0 a
#852
b1 a
#853
b0 a
#854
b1 a
#855
b0 a
#856
b1 a
#857
b0 a
#858
b1 a
#859
b0 a
#860
b1 a
#861
b0 a
#862
b1 a
#863
b0 a
#864
b1 a
#865
b0 a
#866
b1 a
#867
b0 a
#868
b1 a
#869
b0 a
#870
b1 a
#871
b0 a
#872
b1 a
#873
b0 a
#874
b1 a
#875
b0 a
#876
b1 a
#877
b0 a
#878
b1 a
#879
b0 a
#880
b1 a
#881
b0 a
#882
b1 a
#883
b0 a
#884
b1 a
#885
b0 a
#886
b1 a
#887
b0 a
#888
b1 a
#889
b0 a
#890
b1 a
#891
b0 a
#892
b1 a
#893
b0 a
#894
b1 a
#895
b0 a
#896
b1 a
#897
b0 a
#898
b1 a
#899
b0 a
#900
b1 a
#901
b0 a
#902
b1 a
#903
b0 a
#904
b1 a
#905
b0 a
#906
b1 a
#907
b0 a
#908
b1 a
#909
b0 a
#910
b1 a
#911
b0 a
#912
b1 a
#913
b0 a
#914
b1 a
#915
b0 a
#916
b1 a
#917
b0 a
#918
b1 a
#919
b0 a
#920
b1 a
#921
b0 a
#922
b1 a
#923
b0 a
#924
b1 a
#925
b0 a
#926
b1 a
#927
b0 a
#928
b1 a
#929
b0 a
#930
b1 a
#931
b0 a
#932
b1 a
#933
b0 a
#934
b1 a
#935
b0 a
#936
b1 a
#937
b0 a
#938
b1 a
#939
b0 a
#940
b1 a
#941
b0 a
#942
b1 a
#943
b0 a
#944
b1 a
#945
b0 a
#946
b1 a
#947
b0 a
#948
b1 a
#949
b0 a
#950
b1 a
#951
b0 a
#952
b1 a
#953
b0 a
#954
b1 a
#955
b0 a
#956
b1 a
#957
b0 a
#958
b1 a
#959
b0 a
#960
b1 a
#961
b0 a
#962
b1 a
#963
b0 a
#964
b1 a
#965
b0 a
#966
b1 a
#967
b0 a
#968
b1 a
#969
b0 a
#970
b1 a
#971
b0 a
#972
b1 a
#973
b0 a
#974
b1 a
#975
b0 a
#976
b1 a
#977
b0 a
#978
b1 a
#979
b0 a
#980
b1 a
#981
b0 a
#982
b1 a
#983
b0 a
#984
b1 a
#985
b0 a
#986
b1 a
#987
b0 a
#988
b1 a
#989
b0 a
#990
b1 a
#991
b0 a
#992
b1 a
#993
b0 a
#994
b1 a
#995
b0 a
#996
b1 a
#997
b0 a
#998
b1 a
#999
b0 a
#1000
b1 a
#1001
b0 a
#1002
b1 a
#1003
b0 a
#1004
b1 a
#1005
b0 a
#1006
b1 a
#1007
b0 a
#1008
b1 a
#1009
b0 a
#1010
b1 a
#1011
b0 a
#1012
b1 a
#1013
b0 a
#1014
b1 a
#1015
b0 a
#1016
b1 a
#1017
b0 a
