ILA_runs_litescope/alveo board/current fsm signals/first_hbm_read_fsm_0x00001000_litescope_cli -r soc_perform_read_storage.vcd
$date
	2023-02-06 10:20
$end
$timescale 2000ps $end
$scope dumped_signals $end
$var wire 1 ! soc_usphbm2_axiinterface4_aw_valid $end
$var wire 1 " soc_usphbm2_axiinterface4_aw_ready $end
$var wire 1 # soc_usphbm2_axiinterface4_aw_first $end
$var wire 1 $ soc_usphbm2_axiinterface4_aw_last $end
$var wire 33 % soc_usphbm2_axiinterface4_aw_payload_addr $end
$var wire 2 & soc_usphbm2_axiinterface4_aw_payload_burst $end
$var wire 8 ' soc_usphbm2_axiinterface4_aw_payload_len $end
$var wire 3 ( soc_usphbm2_axiinterface4_aw_payload_size $end
$var wire 1 ) soc_usphbm2_axiinterface4_aw_payload_lock $end
$var wire 3 * soc_usphbm2_axiinterface4_aw_payload_prot $end
$var wire 4 + soc_usphbm2_axiinterface4_aw_payload_cache $end
$var wire 4 , soc_usphbm2_axiinterface4_aw_payload_qos $end
$var wire 4 - soc_usphbm2_axiinterface4_aw_payload_region $end
$var wire 6 . soc_usphbm2_axiinterface4_aw_param_id $end
$var wire 1 / soc_usphbm2_axiinterface4_aw_param_dest $end
$var wire 1 0 soc_usphbm2_axiinterface4_aw_param_user $end
$var wire 1 1 soc_usphbm2_axiinterface4_w_valid $end
$var wire 1 2 soc_usphbm2_axiinterface4_w_ready $end
$var wire 1 3 soc_usphbm2_axiinterface4_w_first $end
$var wire 1 4 soc_usphbm2_axiinterface4_w_last $end
$var wire 256 5 soc_usphbm2_axiinterface4_w_payload_data $end
$var wire 32 6 soc_usphbm2_axiinterface4_w_payload_strb $end
$var wire 1 7 soc_usphbm2_axiinterface4_w_param_id $end
$var wire 1 8 soc_usphbm2_axiinterface4_w_param_dest $end
$var wire 1 9 soc_usphbm2_axiinterface4_w_param_user $end
$var wire 1 : soc_usphbm2_axiinterface4_b_valid $end
$var wire 1 ; soc_usphbm2_axiinterface4_b_ready $end
$var wire 1 < soc_usphbm2_axiinterface4_b_first $end
$var wire 1 = soc_usphbm2_axiinterface4_b_last $end
$var wire 2 > soc_usphbm2_axiinterface4_b_payload_resp $end
$var wire 6 ? soc_usphbm2_axiinterface4_b_param_id $end
$var wire 1 @ soc_usphbm2_axiinterface4_b_param_dest $end
$var wire 1 A soc_usphbm2_axiinterface4_b_param_user $end
$var wire 1 B soc_usphbm2_axiinterface4_ar_valid $end
$var wire 1 C soc_usphbm2_axiinterface4_ar_ready $end
$var wire 1 D soc_usphbm2_axiinterface4_ar_first $end
$var wire 1 E soc_usphbm2_axiinterface4_ar_last $end
$var wire 33 F soc_usphbm2_axiinterface4_ar_payload_addr $end
$var wire 2 G soc_usphbm2_axiinterface4_ar_payload_burst $end
$var wire 8 H soc_usphbm2_axiinterface4_ar_payload_len $end
$var wire 3 I soc_usphbm2_axiinterface4_ar_payload_size $end
$var wire 1 J soc_usphbm2_axiinterface4_ar_payload_lock $end
$var wire 3 K soc_usphbm2_axiinterface4_ar_payload_prot $end
$var wire 4 L soc_usphbm2_axiinterface4_ar_payload_cache $end
$var wire 4 M soc_usphbm2_axiinterface4_ar_payload_qos $end
$var wire 4 N soc_usphbm2_axiinterface4_ar_payload_region $end
$var wire 6 O soc_usphbm2_axiinterface4_ar_param_id $end
$var wire 1 P soc_usphbm2_axiinterface4_ar_param_dest $end
$var wire 1 Q soc_usphbm2_axiinterface4_ar_param_user $end
$var wire 1 R soc_usphbm2_axiinterface4_r_valid $end
$var wire 1 S soc_usphbm2_axiinterface4_r_ready $end
$var wire 1 T soc_usphbm2_axiinterface4_r_first $end
$var wire 1 U soc_usphbm2_axiinterface4_r_last $end
$var wire 2 V soc_usphbm2_axiinterface4_r_payload_resp $end
$var wire 256 W soc_usphbm2_axiinterface4_r_payload_data $end
$var wire 6 X soc_usphbm2_axiinterface4_r_param_id $end
$var wire 1 Y soc_usphbm2_axiinterface4_r_param_dest $end
$var wire 1 Z soc_usphbm2_axiinterface4_r_param_user $end
$var wire 1 [ soc_perform_write_storage $end
$var wire 1 \ soc_perform_read_storage $end
$var wire 2 ] soc_write_resp_status $end
$var wire 2 ^ soc_read_resp_status $end
$var wire 32 _ soc_strb_readwrite_storage $end
$var wire 28 ` soc_address_readwrite_storage $end
$var wire 32 a soc_data_writein_storage $end
$var wire 256 b soc_data_sig $end
$var wire 1 c soc_exec_read_done_status $end
$var wire 1 d soc_exec_write_done_status $end
$var wire 1 e soc_acknowledge_readwrite_storage $end
$var wire 1 f soc_waitinstruction_fsm_status $end
$var wire 1 g soc_prepwritecommand_fsm_status $end
$var wire 1 h soc_prepwriteresponse_fsm_status $end
$var wire 1 i soc_donewrite_fsm_status $end
$var wire 1 j soc_prepreadcommand_fsm_status $end
$var wire 1 k soc_prepread_fsm_status $end
$var wire 1 l soc_doneread_fsm_status $end
$var wire 1 m scope_clk $end
$var wire 1 n scope_trig $end
$unscope  $end
$enddefinitions  $end
$dumpvars
bx !
bx "
bx #
bx $
bxxxxxxxxxxxxxxxxxxxxxxxxxxxxxxxxx %
bxx &
bxxxxxxxx '
bxxx (
bx )
bxxx *
bxxxx +
bxxxx ,
bxxxx -
bxxxxxx .
bx /
bx 0
bx 1
bx 2
bx 3
bx 4
bxxxxxxxxxxxxxxxxxxxxxxxxxxxxxxxxxxxxxxxxxxxxxxxxxxxxxxxxxxxxxxxxxxxxxxxxxxxxxxxxxxxxxxxxxxxxxxxxxxxxxxxxxxxxxxxxxxxxxxxxxxxxxxxxxxxxxxxxxxxxxxxxxxxxxxxxxxxxxxxxxxxxxxxxxxxxxxxxxxxxxxxxxxxxxxxxxxxxxxxxxxxxxxxxxxxxxxxxxxxxxxxxxxxxxxxxxxxxxxxxxxxxxxxxxxxxxxxx 5
bxxxxxxxxxxxxxxxxxxxxxxxxxxxxxxxx 6
bx 7
bx 8
bx 9
bx :
bx ;
bx <
bx =
bxx >
bxxxxxx ?
bx @
bx A
bx B
bx C
bx D
bx E
bxxxxxxxxxxxxxxxxxxxxxxxxxxxxxxxxx F
bxx G
bxxxxxxxx H
bxxx I
bx J
bxxx K
bxxxx L
bxxxx M
bxxxx N
bxxxxxx O
bx P
bx Q
bx R
bx S
bx T
bx U
bxx V
bxxxxxxxxxxxxxxxxxxxxxxxxxxxxxxxxxxxxxxxxxxxxxxxxxxxxxxxxxxxxxxxxxxxxxxxxxxxxxxxxxxxxxxxxxxxxxxxxxxxxxxxxxxxxxxxxxxxxxxxxxxxxxxxxxxxxxxxxxxxxxxxxxxxxxxxxxxxxxxxxxxxxxxxxxxxxxxxxxxxxxxxxxxxxxxxxxxxxxxxxxxxxxxxxxxxxxxxxxxxxxxxxxxxxxxxxxxxxxxxxxxxxxxxxxxxxxxxx W
bxxxxxx X
bx Y
bx Z
bx [
bx \
bxx ]
bxx ^
bxxxxxxxxxxxxxxxxxxxxxxxxxxxxxxxx _
bxxxxxxxxxxxxxxxxxxxxxxxxxxxx `
bxxxxxxxxxxxxxxxxxxxxxxxxxxxxxxxx a
bxxxxxxxxxxxxxxxxxxxxxxxxxxxxxxxxxxxxxxxxxxxxxxxxxxxxxxxxxxxxxxxxxxxxxxxxxxxxxxxxxxxxxxxxxxxxxxxxxxxxxxxxxxxxxxxxxxxxxxxxxxxxxxxxxxxxxxxxxxxxxxxxxxxxxxxxxxxxxxxxxxxxxxxxxxxxxxxxxxxxxxxxxxxxxxxxxxxxxxxxxxxxxxxxxxxxxxxxxxxxxxxxxxxxxxxxxxxxxxxxxxxxxxxxxxxxxxxx b
bx c
bx d
bx e
bx f
bx g
bx h
bx i
bx j
bx k
bx l
bx m
bx n
$end
#0
b0 !
b1 "
b0 #
b0 $
b000000000000000000000000000000000 %
b01 &
b00000000 '
b101 (
b0 )
b000 *
b0011 +
b0000 ,
b0000 -
b000000 .
b0 /
b0 0
b0 1
b1 2
b0 3
b1 4
b0000000000000000000000000000000000000000000000000000000000000000000000000000000000000000000000000000000000000000000000000000000000000000000000000000000000000000000000000000000000000000000000000000000000000000000000000000000000000000000000000000000000000000 5
b00000000000000000000000000000000 6
b0 7
b0 8
b0 9
b0 :
b1 ;
b0 <
b0 =
b00 >
b000000 ?
b0 @
b0 A
b0 B
b1 C
b0 D
b0 E
b000000000000000000000000000000000 F
b01 G
b00000000 H
b101 I
b0 J
b000 K
b0011 L
b0000 M
b0000 N
b000000 O
b0 P
b0 Q
b0 R
b1 S
b0 T
b0 U
b00 V
b0000000000000000000000000000000000000000000000000000000000000000000000000000000000000000000000000000000000000000000000000000000000000000000000000000000000000000000000000000000000000000000000000000000000000000000000000000000000000000000000000000000000000000 W
b000000 X
b0 Y
b0 Z
b0 [
b0 \
b00 ]
b00 ^
b00000000000000000000000000100000 _
b0000000000000001000000000000 `
b00010010001101000101011001111000 a
b0000000000000000000000000000000000000000000000000000000000000000000000000000000000000000000000000000000000000000000000000000000000000000000000000000000000000000000000000000000000000000000000000000000000000000000000000000000000000000000000000000000000000000 b
b0 c
b0 d
b0 e
b1 f
b0 g
b0 h
b0 i
b0 j
b0 k
b0 l
b1 m
b0 n
#1
b0 m
#2
b1 m
#3
b0 m
#4
b1 m
#5
b0 m
#6
b1 m
#7
b0 m
#8
b1 m
#9
b0 m
#10
b1 m
#11
b0 m
#12
b1 m
#13
b0 m
#14
b1 m
#15
b0 m
#16
b1 m
#17
b0 m
#18
b1 m
#19
b0 m
#20
b1 m
#21
b0 m
#22
b1 m
#23
b0 m
#24
b1 m
#25
b0 m
#26
b1 m
#27
b0 m
#28
b1 m
#29
b0 m
#30
b1 m
#31
b0 m
#32
b1 m
b1 n
#33
b0 m
#34
b1 m
#35
b0 m
#36
b1 m
#37
b0 m
#38
b1 m
#39
b0 m
#40
b1 m
#41
b0 m
#42
b1 m
#43
b0 m
#44
b1 m
#45
b0 m
#46
b1 m
#47
b0 m
#48
b1 m
#49
b0 m
#50
b1 m
#51
b0 m
#52
b1 m
#53
b0 m
#54
b1 m
#55
b0 m
#56
b1 m
#57
b0 m
#58
b1 m
#59
b0 m
#60
b1 \
b1 m
#61
b0 m
#62
b0 ;
b1 B
b000000000000000100000000000000000 F
b0 S
b0 f
b1 j
b1 m
#63
b0 m
#64
b0 B
b0 j
b1 k
b1 m
#65
b0 m
#66
b1 m
#67
b0 m
#68
b1 m
#69
b0 m
#70
b1 m
#71
b0 m
#72
b1 m
#73
b0 m
#74
b1 m
#75
b0 m
#76
b1 m
#77
b0 m
#78
b1 m
#79
b0 m
#80
b1 m
#81
b0 m
#82
b1 m
#83
b0 m
#84
b1 m
#85
b0 m
#86
b1 m
#87
b0 m
#88
b1 m
#89
b0 m
#90
b1 m
#91
b0 m
#92
b1 m
#93
b0 m
#94
b1 m
#95
b0 m
#96
b1 m
#97
b0 m
#98
b1 m
#99
b0 m
#100
b1 m
#101
b0 m
#102
b1 m
#103
b0 m
#104
b1 m
#105
b0 m
#106
b1 m
#107
b0 m
#108
b1 m
#109
b0 m
#110
b1 m
#111
b0 m
#112
b1 m
#113
b0 m
#114
b1 m
#115
b0 m
#116
b1 m
#117
b0 m
#118
b1 m
#119
b0 m
#120
b1 m
#121
b0 m
#122
b1 m
#123
b0 m
#124
b1 m
#125
b0 m
#126
b1 m
#127
b0 m
#128
b1 m
#129
b0 m
#130
b1 m
#131
b0 m
#132
b1 m
#133
b0 m
#134
b1 m
#135
b0 m
#136
b1 m
#137
b0 m
#138
b1 m
#139
b0 m
#140
b1 m
#141
b0 m
#142
b1 m
#143
b0 m
#144
b1 m
#145
b0 m
#146
b1 m
#147
b0 m
#148
b1 R
b1 U
b1111111111111111111111111111111111111111111111111111111111011111011111111111111111111111111111111111111111111111111111111111111111111111111111111111111111111111111111111111111111111111111111111111111111111111000000001111111111111111111111111111111111111111 W
b1 m
#149
b0 m
#150
b000000000000000000000000000000000 F
b1111111111111111111111111111111111111111111111111111111111011111011111111111111111111111111111111111111111111111111111111111111111111111111111111111111111111111111111111111111111111111111111111111111111111111000000001111111111111111111111111111111111111111 b
b1 c
b0 k
b1 l
b1 m
#151
b0 m
#152
b1 m
#153
b0 m
#154
b1 m
#155
b0 m
#156
b1 m
#157
b0 m
#158
b1 m
#159
b0 m
#160
b1 m
#161
b0 m
#162
b1 m
#163
b0 m
#164
b1 m
#165
b0 m
#166
b1 m
#167
b0 m
#168
b1 m
#169
b0 m
#170
b1 m
#171
b0 m
#172
b1 m
#173
b0 m
#174
b1 m
#175
b0 m
#176
b1 m
#177
b0 m
#178
b1 m
#179
b0 m
#180
b1 m
#181
b0 m
#182
b1 m
#183
b0 m
#184
b1 m
#185
b0 m
#186
b1 m
#187
b0 m
#188
b1 m
#189
b0 m
#190
b1 m
#191
b0 m
#192
b1 m
#193
b0 m
#194
b1 m
#195
b0 m
#196
b1 m
#197
b0 m
#198
b1 m
#199
b0 m
#200
b1 m
#201
b0 m
#202
b1 m
#203
b0 m
#204
b1 m
#205
b0 m
#206
b1 m
#207
b0 m
#208
b1 m
#209
b0 m
#210
b1 m
#211
b0 m
#212
b1 m
#213
b0 m
#214
b1 m
#215
b0 m
#216
b1 m
#217
b0 m
#218
b1 m
#219
b0 m
#220
b1 m
#221
b0 m
#222
b1 m
#223
b0 m
#224
b1 m
#225
b0 m
#226
b1 m
#227
b0 m
#228
b1 m
#229
b0 m
#230
b1 m
#231
b0 m
#232
b1 m
#233
b0 m
#234
b1 m
#235
b0 m
#236
b1 m
#237
b0 m
#238
b1 m
#239
b0 m
#240
b1 m
#241
b0 m
#242
b1 m
#243
b0 m
#244
b1 m
#245
b0 m
#246
b1 m
#247
b0 m
#248
b1 m
#249
b0 m
#250
b1 m
#251
b0 m
#252
b1 m
#253
b0 m
#254
b1 m
#255
b0 m
#256
b1 m
#257
b0 m
#258
b1 m
#259
b0 m
#260
b1 m
#261
b0 m
#262
b1 m
#263
b0 m
#264
b1 m
#265
b0 m
#266
b1 m
#267
b0 m
#268
b1 m
#269
b0 m
#270
b1 m
#271
b0 m
#272
b1 m
#273
b0 m
#274
b1 m
#275
b0 m
#276
b1 m
#277
b0 m
#278
b1 m
#279
b0 m
#280
b1 m
#281
b0 m
#282
b1 m
#283
b0 m
#284
b1 m
#285
b0 m
#286
b1 m
#287
b0 m
#288
b1 m
#289
b0 m
#290
b1 m
#291
b0 m
#292
b1 m
#293
b0 m
#294
b1 m
#295
b0 m
#296
b1 m
#297
b0 m
#298
b1 m
#299
b0 m
#300
b1 m
#301
b0 m
#302
b1 m
#303
b0 m
#304
b1 m
#305
b0 m
#306
b1 m
#307
b0 m
#308
b1 m
#309
b0 m
#310
b1 m
#311
b0 m
#312
b1 m
#313
b0 m
#314
b1 m
#315
b0 m
#316
b1 m
#317
b0 m
#318
b1 m
#319
b0 m
#320
b1 m
#321
b0 m
#322
b1 m
#323
b0 m
#324
b1 m
#325
b0 m
#326
b1 m
#327
b0 m
#328
b1 m
#329
b0 m
#330
b1 m
#331
b0 m
#332
b1 m
#333
b0 m
#334
b1 m
#335
b0 m
#336
b1 m
#337
b0 m
#338
b1 m
#339
b0 m
#340
b1 m
#341
b0 m
#342
b1 m
#343
b0 m
#344
b1 m
#345
b0 m
#346
b1 m
#347
b0 m
#348
b1 m
#349
b0 m
#350
b1 m
#351
b0 m
#352
b1 m
#353
b0 m
#354
b1 m
#355
b0 m
#356
b1 m
#357
b0 m
#358
b1 m
#359
b0 m
#360
b1 m
#361
b0 m
#362
b1 m
#363
b0 m
#364
b1 m
#365
b0 m
#366
b1 m
#367
b0 m
#368
b1 m
#369
b0 m
#370
b1 m
#371
b0 m
#372
b1 m
#373
b0 m
#374
b1 m
#375
b0 m
#376
b1 m
#377
b0 m
#378
b1 m
#379
b0 m
#380
b1 m
#381
b0 m
#382
b1 m
#383
b0 m
#384
b1 m
#385
b0 m
#386
b1 m
#387
b0 m
#388
b1 m
#389
b0 m
#390
b1 m
#391
b0 m
#392
b1 m
#393
b0 m
#394
b1 m
#395
b0 m
#396
b1 m
#397
b0 m
#398
b1 m
#399
b0 m
#400
b1 m
#401
b0 m
#402
b1 m
#403
b0 m
#404
b1 m
#405
b0 m
#406
b1 m
#407
b0 m
#408
b1 m
#409
b0 m
#410
b1 m
#411
b0 m
#412
b1 m
#413
b0 m
#414
b1 m
#415
b0 m
#416
b1 m
#417
b0 m
#418
b1 m
#419
b0 m
#420
b1 m
#421
b0 m
#422
b1 m
#423
b0 m
#424
b1 m
#425
b0 m
#426
b1 m
#427
b0 m
#428
b1 m
#429
b0 m
#430
b1 m
#431
b0 m
#432
b1 m
#433
b0 m
#434
b1 m
#435
b0 m
#436
b1 m
#437
b0 m
#438
b1 m
#439
b0 m
#440
b1 m
#441
b0 m
#442
b1 m
#443
b0 m
#444
b1 m
#445
b0 m
#446
b1 m
#447
b0 m
#448
b1 m
#449
b0 m
#450
b1 m
#451
b0 m
#452
b1 m
#453
b0 m
#454
b1 m
#455
b0 m
#456
b1 m
#457
b0 m
#458
b1 m
#459
b0 m
#460
b1 m
#461
b0 m
#462
b1 m
#463
b0 m
#464
b1 m
#465
b0 m
#466
b1 m
#467
b0 m
#468
b1 m
#469
b0 m
#470
b1 m
#471
b0 m
#472
b1 m
#473
b0 m
#474
b1 m
#475
b0 m
#476
b1 m
#477
b0 m
#478
b1 m
#479
b0 m
#480
b1 m
#481
b0 m
#482
b1 m
#483
b0 m
#484
b1 m
#485
b0 m
#486
b1 m
#487
b0 m
#488
b1 m
#489
b0 m
#490
b1 m
#491
b0 m
#492
b1 m
#493
b0 m
#494
b1 m
#495
b0 m
#496
b1 m
#497
b0 m
#498
b1 m
#499
b0 m
#500
b1 m
#501
b0 m
#502
b1 m
#503
b0 m
#504
b1 m
#505
b0 m
#506
b1 m
#507
b0 m
#508
b1 m
#509
b0 m
#510
b1 m
#511
b0 m
#512
b1 m
#513
b0 m
#514
b1 m
#515
b0 m
#516
b1 m
#517
b0 m
#518
b1 m
#519
b0 m
#520
b1 m
#521
b0 m
#522
b1 m
#523
b0 m
#524
b1 m
#525
b0 m
#526
b1 m
#527
b0 m
#528
b1 m
#529
b0 m
#530
b1 m
#531
b0 m
#532
b1 m
#533
b0 m
#534
b1 m
#535
b0 m
#536
b1 m
#537
b0 m
#538
b1 m
#539
b0 m
#540
b1 m
#541
b0 m
#542
b1 m
#543
b0 m
#544
b1 m
#545
b0 m
#546
b1 m
#547
b0 m
#548
b1 m
#549
b0 m
#550
b1 m
#551
b0 m
#552
b1 m
#553
b0 m
#554
b1 m
#555
b0 m
#556
b1 m
#557
b0 m
#558
b1 m
#559
b0 m
#560
b1 m
#561
b0 m
#562
b1 m
#563
b0 m
#564
b1 m
#565
b0 m
#566
b1 m
#567
b0 m
#568
b1 m
#569
b0 m
#570
b1 m
#571
b0 m
#572
b1 m
#573
b0 m
#574
b1 m
#575
b0 m
#576
b1 m
#577
b0 m
#578
b1 m
#579
b0 m
#580
b1 m
#581
b0 m
#582
b1 m
#583
b0 m
#584
b1 m
#585
b0 m
#586
b1 m
#587
b0 m
#588
b1 m
#589
b0 m
#590
b1 m
#591
b0 m
#592
b1 m
#593
b0 m
#594
b1 m
#595
b0 m
#596
b1 m
#597
b0 m
#598
b1 m
#599
b0 m
#600
b1 m
#601
b0 m
#602
b1 m
#603
b0 m
#604
b1 m
#605
b0 m
#606
b1 m
#607
b0 m
#608
b1 m
#609
b0 m
#610
b1 m
#611
b0 m
#612
b1 m
#613
b0 m
#614
b1 m
#615
b0 m
#616
b1 m
#617
b0 m
#618
b1 m
#619
b0 m
#620
b1 m
#621
b0 m
#622
b1 m
#623
b0 m
#624
b1 m
#625
b0 m
#626
b1 m
#627
b0 m
#628
b1 m
#629
b0 m
#630
b1 m
#631
b0 m
#632
b1 m
#633
b0 m
#634
b1 m
#635
b0 m
#636
b1 m
#637
b0 m
#638
b1 m
#639
b0 m
#640
b1 m
#641
b0 m
#642
b1 m
#643
b0 m
#644
b1 m
#645
b0 m
#646
b1 m
#647
b0 m
#648
b1 m
#649
b0 m
#650
b1 m
#651
b0 m
#652
b1 m
#653
b0 m
#654
b1 m
#655
b0 m
#656
b1 m
#657
b0 m
#658
b1 m
#659
b0 m
#660
b1 m
#661
b0 m
#662
b1 m
#663
b0 m
#664
b1 m
#665
b0 m
#666
b1 m
#667
b0 m
#668
b1 m
#669
b0 m
#670
b1 m
#671
b0 m
#672
b1 m
#673
b0 m
#674
b1 m
#675
b0 m
#676
b1 m
#677
b0 m
#678
b1 m
#679
b0 m
#680
b1 m
#681
b0 m
#682
b1 m
#683
b0 m
#684
b1 m
#685
b0 m
#686
b1 m
#687
b0 m
#688
b1 m
#689
b0 m
#690
b1 m
#691
b0 m
#692
b1 m
#693
b0 m
#694
b1 m
#695
b0 m
#696
b1 m
#697
b0 m
#698
b1 m
#699
b0 m
#700
b1 m
#701
b0 m
#702
b1 m
#703
b0 m
#704
b1 m
#705
b0 m
#706
b1 m
#707
b0 m
#708
b1 m
#709
b0 m
#710
b1 m
#711
b0 m
#712
b1 m
#713
b0 m
#714
b1 m
#715
b0 m
#716
b1 m
#717
b0 m
#718
b1 m
#719
b0 m
#720
b1 m
#721
b0 m
#722
b1 m
#723
b0 m
#724
b1 m
#725
b0 m
#726
b1 m
#727
b0 m
#728
b1 m
#729
b0 m
#730
b1 m
#731
b0 m
#732
b1 m
#733
b0 m
#734
b1 m
#735
b0 m
#736
b1 m
#737
b0 m
#738
b1 m
#739
b0 m
#740
b1 m
#741
b0 m
#742
b1 m
#743
b0 m
#744
b1 m
#745
b0 m
#746
b1 m
#747
b0 m
#748
b1 m
#749
b0 m
#750
b1 m
#751
b0 m
#752
b1 m
#753
b0 m
#754
b1 m
#755
b0 m
#756
b1 m
#757
b0 m
#758
b1 m
#759
b0 m
#760
b1 m
#761
b0 m
#762
b1 m
#763
b0 m
#764
b1 m
#765
b0 m
#766
b1 m
#767
b0 m
#768
b1 m
#769
b0 m
#770
b1 m
#771
b0 m
#772
b1 m
#773
b0 m
#774
b1 m
#775
b0 m
#776
b1 m
#777
b0 m
#778
b1 m
#779
b0 m
#780
b1 m
#781
b0 m
#782
b1 m
#783
b0 m
#784
b1 m
#785
b0 m
#786
b1 m
#787
b0 m
#788
b1 m
#789
b0 m
#790
b1 m
#791
b0 m
#792
b1 m
#793
b0 m
#794
b1 m
#795
b0 m
#796
b1 m
#797
b0 m
#798
b1 m
#799
b0 m
#800
b1 m
#801
b0 m
#802
b1 m
#803
b0 m
#804
b1 m
#805
b0 m
#806
b1 m
#807
b0 m
#808
b1 m
#809
b0 m
#810
b1 m
#811
b0 m
#812
b1 m
#813
b0 m
#814
b1 m
#815
b0 m
#816
b1 m
#817
b0 m
#818
b1 m
#819
b0 m
#820
b1 m
#821
b0 m
#822
b1 m
#823
b0 m
#824
b1 m
#825
b0 m
#826
b1 m
#827
b0 m
#828
b1 m
#829
b0 m
#830
b1 m
#831
b0 m
#832
b1 m
#833
b0 m
#834
b1 m
#835
b0 m
#836
b1 m
#837
b0 m
#838
b1 m
#839
b0 m
#840
b1 m
#841
b0 m
#842
b1 m
#843
b0 m
#844
b1 m
#845
b0 m
#846
b1 m
#847
b0 m
#848
b1 m
#849
b0 m
#850
b1 m
#851
b0 m
#852
b1 m
#853
b0 m
#854
b1 m
#855
b0 m
#856
b1 m
#857
b0 m
#858
b1 m
#859
b0 m
#860
b1 m
#861
b0 m
#862
b1 m
#863
b0 m
#864
b1 m
#865
b0 m
#866
b1 m
#867
b0 m
#868
b1 m
#869
b0 m
#870
b1 m
#871
b0 m
#872
b1 m
#873
b0 m
#874
b1 m
#875
b0 m
#876
b1 m
#877
b0 m
#878
b1 m
#879
b0 m
#880
b1 m
#881
b0 m
#882
b1 m
#883
b0 m
#884
b1 m
#885
b0 m
#886
b1 m
#887
b0 m
#888
b1 m
#889
b0 m
#890
b1 m
#891
b0 m
#892
b1 m
#893
b0 m
#894
b1 m
#895
b0 m
#896
b1 m
#897
b0 m
#898
b1 m
#899
b0 m
#900
b1 m
#901
b0 m
#902
b1 m
#903
b0 m
#904
b1 m
#905
b0 m
#906
b1 m
#907
b0 m
#908
b1 m
#909
b0 m
#910
b1 m
#911
b0 m
#912
b1 m
#913
b0 m
#914
b1 m
#915
b0 m
#916
b1 m
#917
b0 m
#918
b1 m
#919
b0 m
#920
b1 m
#921
b0 m
#922
b1 m
#923
b0 m
#924
b1 m
#925
b0 m
#926
b1 m
#927
b0 m
#928
b1 m
#929
b0 m
#930
b1 m
#931
b0 m
#932
b1 m
#933
b0 m
#934
b1 m
#935
b0 m
#936
b1 m
#937
b0 m
#938
b1 m
#939
b0 m
#940
b1 m
#941
b0 m
#942
b1 m
#943
b0 m
#944
b1 m
#945
b0 m
#946
b1 m
#947
b0 m
#948
b1 m
#949
b0 m
#950
b1 m
#951
b0 m
#952
b1 m
#953
b0 m
#954
b1 m
#955
b0 m
#956
b1 m
#957
b0 m
#958
b1 m
#959
b0 m
#960
b1 m
#961
b0 m
#962
b1 m
#963
b0 m
#964
b1 m
#965
b0 m
#966
b1 m
#967
b0 m
#968
b1 m
#969
b0 m
#970
b1 m
#971
b0 m
#972
b1 m
#973
b0 m
#974
b1 m
#975
b0 m
#976
b1 m
#977
b0 m
#978
b1 m
#979
b0 m
#980
b1 m
#981
b0 m
#982
b1 m
#983
b0 m
#984
b1 m
#985
b0 m
#986
b1 m
#987
b0 m
#988
b1 m
#989
b0 m
#990
b1 m
#991
b0 m
#992
b1 m
#993
b0 m
#994
b1 m
#995
b0 m
#996
b1 m
#997
b0 m
#998
b1 m
#999
b0 m
#1000
b1 m
#1001
b0 m
#1002
b1 m
#1003
b0 m
#1004
b1 m
#1005
b0 m
#1006
b1 m
#1007
b0 m
#1008
b1 m
#1009
b0 m
#1010
b1 m
#1011
b0 m
#1012
b1 m
#1013
b0 m
#1014
b1 m
#1015
b0 m
#1016
b1 m
#1017
b0 m
