ILA_runs_litescope/alveo board/cpu read write/mem_read_0x40000000_soc_usphbm2_axiinterface0_ar_valid.vcd
$date
	2023-02-06 08:42
$end
$timescale 2000ps $end
$scope dumped_signals $end
$var wire 1 ! soc_usphbm2_axiinterface0_aw_valid $end
$var wire 1 " soc_usphbm2_axiinterface0_aw_ready $end
$var wire 1 # soc_usphbm2_axiinterface0_aw_first $end
$var wire 1 $ soc_usphbm2_axiinterface0_aw_last $end
$var wire 33 % soc_usphbm2_axiinterface0_aw_payload_addr $end
$var wire 2 & soc_usphbm2_axiinterface0_aw_payload_burst $end
$var wire 8 ' soc_usphbm2_axiinterface0_aw_payload_len $end
$var wire 3 ( soc_usphbm2_axiinterface0_aw_payload_size $end
$var wire 1 ) soc_usphbm2_axiinterface0_aw_payload_lock $end
$var wire 3 * soc_usphbm2_axiinterface0_aw_payload_prot $end
$var wire 4 + soc_usphbm2_axiinterface0_aw_payload_cache $end
$var wire 4 , soc_usphbm2_axiinterface0_aw_payload_qos $end
$var wire 4 - soc_usphbm2_axiinterface0_aw_payload_region $end
$var wire 6 . soc_usphbm2_axiinterface0_aw_param_id $end
$var wire 1 / soc_usphbm2_axiinterface0_aw_param_dest $end
$var wire 1 0 soc_usphbm2_axiinterface0_aw_param_user $end
$var wire 1 1 soc_usphbm2_axiinterface0_w_valid $end
$var wire 1 2 soc_usphbm2_axiinterface0_w_ready $end
$var wire 1 3 soc_usphbm2_axiinterface0_w_first $end
$var wire 1 4 soc_usphbm2_axiinterface0_w_last $end
$var wire 256 5 soc_usphbm2_axiinterface0_w_payload_data $end
$var wire 32 6 soc_usphbm2_axiinterface0_w_payload_strb $end
$var wire 1 7 soc_usphbm2_axiinterface0_w_param_id $end
$var wire 1 8 soc_usphbm2_axiinterface0_w_param_dest $end
$var wire 1 9 soc_usphbm2_axiinterface0_w_param_user $end
$var wire 1 : soc_usphbm2_axiinterface0_b_valid $end
$var wire 1 ; soc_usphbm2_axiinterface0_b_ready $end
$var wire 1 < soc_usphbm2_axiinterface0_b_first $end
$var wire 1 = soc_usphbm2_axiinterface0_b_last $end
$var wire 2 > soc_usphbm2_axiinterface0_b_payload_resp $end
$var wire 6 ? soc_usphbm2_axiinterface0_b_param_id $end
$var wire 1 @ soc_usphbm2_axiinterface0_b_param_dest $end
$var wire 1 A soc_usphbm2_axiinterface0_b_param_user $end
$var wire 1 B soc_usphbm2_axiinterface0_ar_valid $end
$var wire 1 C soc_usphbm2_axiinterface0_ar_ready $end
$var wire 1 D soc_usphbm2_axiinterface0_ar_first $end
$var wire 1 E soc_usphbm2_axiinterface0_ar_last $end
$var wire 33 F soc_usphbm2_axiinterface0_ar_payload_addr $end
$var wire 2 G soc_usphbm2_axiinterface0_ar_payload_burst $end
$var wire 8 H soc_usphbm2_axiinterface0_ar_payload_len $end
$var wire 3 I soc_usphbm2_axiinterface0_ar_payload_size $end
$var wire 1 J soc_usphbm2_axiinterface0_ar_payload_lock $end
$var wire 3 K soc_usphbm2_axiinterface0_ar_payload_prot $end
$var wire 4 L soc_usphbm2_axiinterface0_ar_payload_cache $end
$var wire 4 M soc_usphbm2_axiinterface0_ar_payload_qos $end
$var wire 4 N soc_usphbm2_axiinterface0_ar_payload_region $end
$var wire 6 O soc_usphbm2_axiinterface0_ar_param_id $end
$var wire 1 P soc_usphbm2_axiinterface0_ar_param_dest $end
$var wire 1 Q soc_usphbm2_axiinterface0_ar_param_user $end
$var wire 1 R soc_usphbm2_axiinterface0_r_valid $end
$var wire 1 S soc_usphbm2_axiinterface0_r_ready $end
$var wire 1 T soc_usphbm2_axiinterface0_r_first $end
$var wire 1 U soc_usphbm2_axiinterface0_r_last $end
$var wire 2 V soc_usphbm2_axiinterface0_r_payload_resp $end
$var wire 256 W soc_usphbm2_axiinterface0_r_payload_data $end
$var wire 6 X soc_usphbm2_axiinterface0_r_param_id $end
$var wire 1 Y soc_usphbm2_axiinterface0_r_param_dest $end
$var wire 1 Z soc_usphbm2_axiinterface0_r_param_user $end
$var wire 30 [ soc_interface0_adapted_interface_adr $end
$var wire 32 \ soc_interface0_adapted_interface_dat_w $end
$var wire 32 ] soc_interface0_adapted_interface_dat_r $end
$var wire 4 ^ soc_interface0_adapted_interface_sel $end
$var wire 1 _ soc_interface0_adapted_interface_cyc $end
$var wire 1 ` soc_interface0_adapted_interface_stb $end
$var wire 1 a soc_interface0_adapted_interface_ack $end
$var wire 1 b soc_interface0_adapted_interface_we $end
$var wire 3 c soc_interface0_adapted_interface_cti $end
$var wire 2 d soc_interface0_adapted_interface_bte $end
$var wire 1 e soc_interface0_adapted_interface_err $end
$var wire 1 f soc_cpu_ibus_stb $end
$var wire 1 g soc_cpu_ibus_cyc $end
$var wire 30 h soc_cpu_ibus_adr $end
$var wire 1 i soc_cpu_ibus_we $end
$var wire 1 j soc_cpu_ibus_ack $end
$var wire 4 k soc_cpu_ibus_sel $end
$var wire 32 l soc_cpu_ibus_dat_w $end
$var wire 32 m soc_cpu_ibus_dat_r $end
$var wire 1 n soc_cpu_dbus_stb $end
$var wire 1 o soc_cpu_dbus_cyc $end
$var wire 30 p soc_cpu_dbus_adr $end
$var wire 1 q soc_cpu_dbus_we $end
$var wire 1 r soc_cpu_dbus_ack $end
$var wire 4 s soc_cpu_dbus_sel $end
$var wire 32 t soc_cpu_dbus_dat_w $end
$var wire 32 u soc_cpu_dbus_dat_r $end
$var wire 1 v scope_clk $end
$var wire 1 w scope_trig $end
$unscope  $end
$enddefinitions  $end
$dumpvars
bx !
bx "
bx #
bx $
bxxxxxxxxxxxxxxxxxxxxxxxxxxxxxxxxx %
bxx &
bxxxxxxxx '
bxxx (
bx )
bxxx *
bxxxx +
bxxxx ,
bxxxx -
bxxxxxx .
bx /
bx 0
bx 1
bx 2
bx 3
bx 4
bxxxxxxxxxxxxxxxxxxxxxxxxxxxxxxxxxxxxxxxxxxxxxxxxxxxxxxxxxxxxxxxxxxxxxxxxxxxxxxxxxxxxxxxxxxxxxxxxxxxxxxxxxxxxxxxxxxxxxxxxxxxxxxxxxxxxxxxxxxxxxxxxxxxxxxxxxxxxxxxxxxxxxxxxxxxxxxxxxxxxxxxxxxxxxxxxxxxxxxxxxxxxxxxxxxxxxxxxxxxxxxxxxxxxxxxxxxxxxxxxxxxxxxxxxxxxxxxx 5
bxxxxxxxxxxxxxxxxxxxxxxxxxxxxxxxx 6
bx 7
bx 8
bx 9
bx :
bx ;
bx <
bx =
bxx >
bxxxxxx ?
bx @
bx A
bx B
bx C
bx D
bx E
bxxxxxxxxxxxxxxxxxxxxxxxxxxxxxxxxx F
bxx G
bxxxxxxxx H
bxxx I
bx J
bxxx K
bxxxx L
bxxxx M
bxxxx N
bxxxxxx O
bx P
bx Q
bx R
bx S
bx T
bx U
bxx V
bxxxxxxxxxxxxxxxxxxxxxxxxxxxxxxxxxxxxxxxxxxxxxxxxxxxxxxxxxxxxxxxxxxxxxxxxxxxxxxxxxxxxxxxxxxxxxxxxxxxxxxxxxxxxxxxxxxxxxxxxxxxxxxxxxxxxxxxxxxxxxxxxxxxxxxxxxxxxxxxxxxxxxxxxxxxxxxxxxxxxxxxxxxxxxxxxxxxxxxxxxxxxxxxxxxxxxxxxxxxxxxxxxxxxxxxxxxxxxxxxxxxxxxxxxxxxxxxx W
bxxxxxx X
bx Y
bx Z
bxxxxxxxxxxxxxxxxxxxxxxxxxxxxxx [
bxxxxxxxxxxxxxxxxxxxxxxxxxxxxxxxx \
bxxxxxxxxxxxxxxxxxxxxxxxxxxxxxxxx ]
bxxxx ^
bx _
bx `
bx a
bx b
bxxx c
bxx d
bx e
bx f
bx g
bxxxxxxxxxxxxxxxxxxxxxxxxxxxxxx h
bx i
bx j
bxxxx k
bxxxxxxxxxxxxxxxxxxxxxxxxxxxxxxxx l
bxxxxxxxxxxxxxxxxxxxxxxxxxxxxxxxx m
bx n
bx o
bxxxxxxxxxxxxxxxxxxxxxxxxxxxxxx p
bx q
bx r
bxxxx s
bxxxxxxxxxxxxxxxxxxxxxxxxxxxxxxxx t
bxxxxxxxxxxxxxxxxxxxxxxxxxxxxxxxx u
bx v
bx w
$end
#0
b0 !
b1 "
b0 #
b0 $
b000000000000000000000000000000000 %
b01 &
b00000000 '
b101 (
b0 )
b000 *
b0011 +
b0000 ,
b0000 -
b000000 .
b0 /
b0 0
b0 1
b1 2
b0 3
b1 4
b0000000000000000000000000000000000000000000000000000000000000000000000000000000000000000000000000000000000000000000000000000000000000000000000000000000000000000000000000000000000000000000000000000000000000000000000000000000000000000000000000000000000000000 5
b00000000000000000000000000000000 6
b0 7
b0 8
b0 9
b0 :
b0 ;
b0 <
b0 =
b00 >
b000000 ?
b0 @
b0 A
b0 B
b1 C
b0 D
b0 E
b000000000000000000000000000000000 F
b01 G
b00000000 H
b101 I
b0 J
b000 K
b0011 L
b0000 M
b0000 N
b000000 O
b0 P
b0 Q
b0 R
b0 S
b0 T
b0 U
b00 V
b0000000000000000000000000000000000000000000000000000000000000000000000000000000000000000000000000000000000000000000000000000000000000000000000000000000000000000000000000000000000000000000000000000000000000000000000000000000000000000000000000000000000000000 W
b000000 X
b0 Y
b0 Z
b000000000000000000001010100000 [
b00000000000000000000000000000000 \
b00000000000000000000000000000000 ]
b1111 ^
b0 _
b0 `
b0 a
b0 b
b010 c
b00 d
b0 e
b0 f
b0 g
b000000000000000000001010100000 h
b0 i
b0 j
b1111 k
b00000000000000000000000000000000 l
b00000000100110100101010001100011 m
b0 n
b0 o
b000000000000000001001001101000 p
b0 q
b0 r
b1111 s
b00000000000000000000000000000000 t
b00000000100110100101010001100011 u
b1 v
b0 w
#1
b0 v
#2
b1 v
#3
b0 v
#4
b1 v
#5
b0 v
#6
b1 v
#7
b0 v
#8
b000000000000000000000000000000 p
b1 v
#9
b0 v
#10
b000000000000000000001010101000 [
b1 `
b1 f
b1 g
b000000000000000000001010101000 h
b1 v
#11
b0 v
#12
b1 j
b00000000000001110100010110000011 m
b00000000000001110100010110000011 u
b1 v
#13
b0 v
#14
b000000000000000000001010101001 [
b000000000000000000001010101001 h
b0 j
b010000000000000000000000000000 p
b1 q
b0001 s
b1 v
#15
b0 v
#16
b1 j
b00000000000010111000010100010011 m
b000000000000000000000000010001 p
b0 q
b1111 s
b00000000000010111000010100010011 u
b1 v
#17
b0 v
#18
b000000000000000000001010101010 [
b000000000000000000001010101010 h
b0 j
b000000000000000000000000000000 p
b00101110001011100010111000101110 t
b1 v
#19
b0 v
#20
b1 j
b00000000000110110000101100010011 m
b000000000000000000000000001001 p
b00000000000110110000101100010011 u
b1 v
#21
b0 v
#22
b000000000000000000001010101011 [
b000000000000000000001010101011 h
b0 j
b000000000000000000000000010001 p
b00000000000000000000000000000000 t
b1 v
#23
b0 v
#24
b1 j
b01011001000100000001000011101111 m
b01011001000100000001000011101111 u
b1 v
#25
b0 v
#26
b000000000000000000001010101100 [
b000000000000000000001010101100 h
b0 j
b1 v
#27
b0 v
#28
b1 j
b11111111011001000001011011100011 m
b010000000000000000000000000000 p
b11111111011001000001011011100011 u
b1 v
#29
b0 v
#30
b000000000000000000001010101101 [
b000000000000000000001010101101 h
b0 j
b1 v
#31
b0 v
#32
b1 j
b00000000000001000000101100010011 m
b00000000000001000000101100010011 u
b1 v
b1 w
#33
b0 v
#34
b000000000000000000001010101110 [
b000000000000000000001010101110 h
b0 j
b1 v
#35
b0 v
#36
b1 j
b00000101010010110001011001100011 m
b00000101010010110001011001100011 u
b1 v
#37
b0 v
#38
b000000000000000000001010101111 [
b111 c
b000000000000000000001010101111 h
b0 j
b1 v
#39
b0 v
#40
b1 j
b00000000000010101000010100010011 m
b00000000000010101000010100010011 u
b1 v
#41
b0 v
#42
b000000000000000000001010101000 [
b0 `
b010 c
b0 f
b0 g
b000000000000000000001010101000 h
b0 j
b1 v
#43
b0 v
#44
b00000000000001110100010110000011 m
b00000000000001110100010110000011 u
b1 v
#45
b0 v
#46
b1 v
#47
b0 v
#48
b1 v
#49
b0 v
#50
b1 v
#51
b0 v
#52
b1 v
#53
b0 v
#54
b1 v
#55
b0 v
#56
b1 n
b1 o
b1 v
#57
b0 v
#58
b010000000000000000000000000000 [
b1 _
b1 `
b1 v
#59
b0 v
#60
b1 B
b001000000000000000000000000000000 F
b00000000000000000000000000000000 m
b00000000000000000000000000000000 u
b1 v
#61
b0 v
#62
b0 B
b1 S
b1 v
#63
b0 v
#64
b1 v
#65
b0 v
#66
b1 v
#67
b0 v
#68
b1 v
#69
b0 v
#70
b1 v
#71
b0 v
#72
b1 v
#73
b0 v
#74
b1 v
#75
b0 v
#76
b1 v
#77
b0 v
#78
b1 v
#79
b0 v
#80
b1 v
#81
b0 v
#82
b1 v
#83
b0 v
#84
b1 v
#85
b0 v
#86
b1 v
#87
b0 v
#88
b1 v
#89
b0 v
#90
b1 v
#91
b0 v
#92
b1 v
#93
b0 v
#94
b1 v
#95
b0 v
#96
b1 v
#97
b0 v
#98
b1 v
#99
b0 v
#100
b1 v
#101
b0 v
#102
b1 v
#103
b0 v
#104
b1 v
#105
b0 v
#106
b1 v
#107
b0 v
#108
b1 v
#109
b0 v
#110
b1 v
#111
b0 v
#112
b1 v
#113
b0 v
#114
b1 v
#115
b0 v
#116
b1 v
#117
b0 v
#118
b1 v
#119
b0 v
#120
b1 v
#121
b0 v
#122
b1 v
#123
b0 v
#124
b1 v
#125
b0 v
#126
b1 v
#127
b0 v
#128
b1 v
#129
b0 v
#130
b1 v
#131
b0 v
#132
b1 v
#133
b0 v
#134
b1 v
#135
b0 v
#136
b1 v
#137
b0 v
#138
b1 v
#139
b0 v
#140
b1 v
#141
b0 v
#142
b1 v
#143
b0 v
#144
b1 v
#145
b0 v
#146
b1 R
b1 U
b1111111111111111111111111111111111111111111111111111111111111111111111111111111111111111111111111111111111111111111111111111111111111111111111111111111111111111111111111111111111111111111111111111111111111111111111111111111100010010001101000101011001111000 W
b00010010001101000101011001111000 ]
b1 a
b00010010001101000101011001111000 m
b1 r
b00010010001101000101011001111000 u
b1 v
#147
b0 v
#148
b000000000000000000000000000000000 F
b0 R
b0 S
b0 U
b0000000000000000000000000000000000000000000000000000000000000000000000000000000000000000000000000000000000000000000000000000000000000000000000000000000000000000000000000000000000000000000000000000000000000000000000000000000000000000000000000000000000000000 W
b010000000000000000000000000001 [
b00000000000000000000000000000000 ]
b0 a
b00000000000000000000000000000000 m
b010000000000000000000000000001 p
b0 r
b00000000000000000000000000000000 u
b1 v
#149
b0 v
#150
b1 B
b001000000000000000000000000000000 F
b1 v
#151
b0 v
#152
b0 B
b1 S
b1 v
#153
b0 v
#154
b1 v
#155
b0 v
#156
b1 v
#157
b0 v
#158
b1 v
#159
b0 v
#160
b1 v
#161
b0 v
#162
b1 v
#163
b0 v
#164
b1 v
#165
b0 v
#166
b1 v
#167
b0 v
#168
b1 v
#169
b0 v
#170
b1 v
#171
b0 v
#172
b1 v
#173
b0 v
#174
b1 v
#175
b0 v
#176
b1 v
#177
b0 v
#178
b1 v
#179
b0 v
#180
b1 v
#181
b0 v
#182
b1 v
#183
b0 v
#184
b1 v
#185
b0 v
#186
b1 v
#187
b0 v
#188
b1 v
#189
b0 v
#190
b1 v
#191
b0 v
#192
b1 v
#193
b0 v
#194
b1 v
#195
b0 v
#196
b1 v
#197
b0 v
#198
b1 v
#199
b0 v
#200
b1 v
#201
b0 v
#202
b1 v
#203
b0 v
#204
b1 v
#205
b0 v
#206
b1 v
#207
b0 v
#208
b1 v
#209
b0 v
#210
b1 v
#211
b0 v
#212
b1 v
#213
b0 v
#214
b1 v
#215
b0 v
#216
b1 v
#217
b0 v
#218
b1 v
#219
b0 v
#220
b1 v
#221
b0 v
#222
b1 v
#223
b0 v
#224
b1 v
#225
b0 v
#226
b1 v
#227
b0 v
#228
b1 R
b1 U
b1111111111111111111111111111111111111111111111111111111111111111111111111111111111111111111111111111111111111111111111111111111111111111111111111111111111111111111111111111111111111111111111111111111111111111111111111111111100010010001101000101011001111000 W
b11111111111111111111111111111111 ]
b1 a
b11111111111111111111111111111111 m
b1 r
b11111111111111111111111111111111 u
b1 v
#229
b0 v
#230
b000000000000000000000000000000000 F
b0 R
b0 S
b0 U
b0000000000000000000000000000000000000000000000000000000000000000000000000000000000000000000000000000000000000000000000000000000000000000000000000000000000000000000000000000000000000000000000000000000000000000000000000000000000000000000000000000000000000000 W
b010000000000000000000000000010 [
b00000000000000000000000000000000 ]
b0 a
b00000000000000000000000000000000 m
b010000000000000000000000000010 p
b0 r
b00000000000000000000000000000000 u
b1 v
#231
b0 v
#232
b1 B
b001000000000000000000000000000000 F
b1 v
#233
b0 v
#234
b0 B
b1 S
b1 v
#235
b0 v
#236
b1 v
#237
b0 v
#238
b1 v
#239
b0 v
#240
b1 v
#241
b0 v
#242
b1 v
#243
b0 v
#244
b1 v
#245
b0 v
#246
b1 v
#247
b0 v
#248
b1 v
#249
b0 v
#250
b1 v
#251
b0 v
#252
b1 v
#253
b0 v
#254
b1 v
#255
b0 v
#256
b1 v
#257
b0 v
#258
b1 v
#259
b0 v
#260
b1 v
#261
b0 v
#262
b1 v
#263
b0 v
#264
b1 v
#265
b0 v
#266
b1 v
#267
b0 v
#268
b1 v
#269
b0 v
#270
b1 v
#271
b0 v
#272
b1 v
#273
b0 v
#274
b1 v
#275
b0 v
#276
b1 v
#277
b0 v
#278
b1 v
#279
b0 v
#280
b1 v
#281
b0 v
#282
b1 v
#283
b0 v
#284
b1 v
#285
b0 v
#286
b1 v
#287
b0 v
#288
b1 v
#289
b0 v
#290
b1 v
#291
b0 v
#292
b1 v
#293
b0 v
#294
b1 v
#295
b0 v
#296
b1 v
#297
b0 v
#298
b1 v
#299
b0 v
#300
b1 v
#301
b0 v
#302
b1 v
#303
b0 v
#304
b1 v
#305
b0 v
#306
b1 v
#307
b0 v
#308
b1 v
#309
b0 v
#310
b1 R
b1 U
b1111111111111111111111111111111111111111111111111111111111111111111111111111111111111111111111111111111111111111111111111111111111111111111111111111111111111111111111111111111111111111111111111111111111111111111111111111111100010010001101000101011001111000 W
b11111111111111111111111111111111 ]
b1 a
b11111111111111111111111111111111 m
b1 r
b11111111111111111111111111111111 u
b1 v
#311
b0 v
#312
b000000000000000000000000000000000 F
b0 R
b0 S
b0 U
b0000000000000000000000000000000000000000000000000000000000000000000000000000000000000000000000000000000000000000000000000000000000000000000000000000000000000000000000000000000000000000000000000000000000000000000000000000000000000000000000000000000000000000 W
b010000000000000000000000000011 [
b00000000000000000000000000000000 ]
b0 a
b00000000000000000000000000000000 m
b010000000000000000000000000011 p
b0 r
b00000000000000000000000000000000 u
b1 v
#313
b0 v
#314
b1 B
b001000000000000000000000000000000 F
b1 v
#315
b0 v
#316
b0 B
b1 S
b1 v
#317
b0 v
#318
b1 v
#319
b0 v
#320
b1 v
#321
b0 v
#322
b1 v
#323
b0 v
#324
b1 v
#325
b0 v
#326
b1 v
#327
b0 v
#328
b1 v
#329
b0 v
#330
b1 v
#331
b0 v
#332
b1 v
#333
b0 v
#334
b1 v
#335
b0 v
#336
b1 v
#337
b0 v
#338
b1 v
#339
b0 v
#340
b1 v
#341
b0 v
#342
b1 v
#343
b0 v
#344
b1 v
#345
b0 v
#346
b1 v
#347
b0 v
#348
b1 v
#349
b0 v
#350
b1 v
#351
b0 v
#352
b1 v
#353
b0 v
#354
b1 v
#355
b0 v
#356
b1 v
#357
b0 v
#358
b1 v
#359
b0 v
#360
b1 v
#361
b0 v
#362
b1 v
#363
b0 v
#364
b1 v
#365
b0 v
#366
b1 v
#367
b0 v
#368
b1 v
#369
b0 v
#370
b1 v
#371
b0 v
#372
b1 v
#373
b0 v
#374
b1 v
#375
b0 v
#376
b1 v
#377
b0 v
#378
b1 v
#379
b0 v
#380
b1 v
#381
b0 v
#382
b1 v
#383
b0 v
#384
b1 v
#385
b0 v
#386
b1 v
#387
b0 v
#388
b1 v
#389
b0 v
#390
b1 v
#391
b0 v
#392
b1 R
b1 U
b1111111111111111111111111111111111111111111111111111111111111111111111111111111111111111111111111111111111111111111111111111111111111111111111111111111111111111111111111111111111111111111111111111111111111111111111111111111100010010001101000101011001111000 W
b11111111111111111111111111111111 ]
b1 a
b11111111111111111111111111111111 m
b1 r
b11111111111111111111111111111111 u
b1 v
#393
b0 v
#394
b000000000000000000000000000000000 F
b0 R
b0 S
b0 U
b0000000000000000000000000000000000000000000000000000000000000000000000000000000000000000000000000000000000000000000000000000000000000000000000000000000000000000000000000000000000000000000000000000000000000000000000000000000000000000000000000000000000000000 W
b010000000000000000000000000100 [
b00000000000000000000000000000000 ]
b0 a
b00000000000000000000000000000000 m
b010000000000000000000000000100 p
b0 r
b00000000000000000000000000000000 u
b1 v
#395
b0 v
#396
b1 B
b001000000000000000000000000000000 F
b1 v
#397
b0 v
#398
b0 B
b1 S
b1 v
#399
b0 v
#400
b1 v
#401
b0 v
#402
b1 v
#403
b0 v
#404
b1 v
#405
b0 v
#406
b1 v
#407
b0 v
#408
b1 v
#409
b0 v
#410
b1 v
#411
b0 v
#412
b1 v
#413
b0 v
#414
b1 v
#415
b0 v
#416
b1 v
#417
b0 v
#418
b1 v
#419
b0 v
#420
b1 v
#421
b0 v
#422
b1 v
#423
b0 v
#424
b1 v
#425
b0 v
#426
b1 v
#427
b0 v
#428
b1 v
#429
b0 v
#430
b1 v
#431
b0 v
#432
b1 v
#433
b0 v
#434
b1 v
#435
b0 v
#436
b1 v
#437
b0 v
#438
b1 v
#439
b0 v
#440
b1 v
#441
b0 v
#442
b1 v
#443
b0 v
#444
b1 v
#445
b0 v
#446
b1 v
#447
b0 v
#448
b1 v
#449
b0 v
#450
b1 v
#451
b0 v
#452
b1 v
#453
b0 v
#454
b1 v
#455
b0 v
#456
b1 v
#457
b0 v
#458
b1 v
#459
b0 v
#460
b1 v
#461
b0 v
#462
b1 v
#463
b0 v
#464
b1 v
#465
b0 v
#466
b1 v
#467
b0 v
#468
b1 v
#469
b0 v
#470
b1 v
#471
b0 v
#472
b1 v
#473
b0 v
#474
b1 R
b1 U
b1111111111111111111111111111111111111111111111111111111111111111111111111111111111111111111111111111111111111111111111111111111111111111111111111111111111111111111111111111111111111111111111111111111111111111111111111111111100010010001101000101011001111000 W
b11111111111111111111111111111111 ]
b1 a
b11111111111111111111111111111111 m
b1 r
b11111111111111111111111111111111 u
b1 v
#475
b0 v
#476
b000000000000000000000000000000000 F
b0 R
b0 S
b0 U
b0000000000000000000000000000000000000000000000000000000000000000000000000000000000000000000000000000000000000000000000000000000000000000000000000000000000000000000000000000000000000000000000000000000000000000000000000000000000000000000000000000000000000000 W
b010000000000000000000000000101 [
b00000000000000000000000000000000 ]
b0 a
b00000000000000000000000000000000 m
b010000000000000000000000000101 p
b0 r
b00000000000000000000000000000000 u
b1 v
#477
b0 v
#478
b1 B
b001000000000000000000000000000000 F
b1 v
#479
b0 v
#480
b0 B
b1 S
b1 v
#481
b0 v
#482
b1 v
#483
b0 v
#484
b1 v
#485
b0 v
#486
b1 v
#487
b0 v
#488
b1 v
#489
b0 v
#490
b1 v
#491
b0 v
#492
b1 v
#493
b0 v
#494
b1 v
#495
b0 v
#496
b1 v
#497
b0 v
#498
b1 v
#499
b0 v
#500
b1 v
#501
b0 v
#502
b1 v
#503
b0 v
#504
b1 v
#505
b0 v
#506
b1 v
#507
b0 v
#508
b1 v
#509
b0 v
#510
b1 v
#511
b0 v
#512
b1 v
#513
b0 v
#514
b1 v
#515
b0 v
#516
b1 v
#517
b0 v
#518
b1 v
#519
b0 v
#520
b1 v
#521
b0 v
#522
b1 v
#523
b0 v
#524
b1 v
#525
b0 v
#526
b1 v
#527
b0 v
#528
b1 v
#529
b0 v
#530
b1 v
#531
b0 v
#532
b1 v
#533
b0 v
#534
b1 v
#535
b0 v
#536
b1 v
#537
b0 v
#538
b1 v
#539
b0 v
#540
b1 v
#541
b0 v
#542
b1 v
#543
b0 v
#544
b1 v
#545
b0 v
#546
b1 v
#547
b0 v
#548
b1 v
#549
b0 v
#550
b1 v
#551
b0 v
#552
b1 v
#553
b0 v
#554
b1 v
#555
b0 v
#556
b1 R
b1 U
b1111111111111111111111111111111111111111111111111111111111111111111111111111111111111111111111111111111111111111111111111111111111111111111111111111111111111111111111111111111111111111111111111111111111111111111111111111111100010010001101000101011001111000 W
b11111111111111111111111111111111 ]
b1 a
b11111111111111111111111111111111 m
b1 r
b11111111111111111111111111111111 u
b1 v
#557
b0 v
#558
b000000000000000000000000000000000 F
b0 R
b0 S
b0 U
b0000000000000000000000000000000000000000000000000000000000000000000000000000000000000000000000000000000000000000000000000000000000000000000000000000000000000000000000000000000000000000000000000000000000000000000000000000000000000000000000000000000000000000 W
b010000000000000000000000000110 [
b00000000000000000000000000000000 ]
b0 a
b00000000000000000000000000000000 m
b010000000000000000000000000110 p
b0 r
b00000000000000000000000000000000 u
b1 v
#559
b0 v
#560
b1 B
b001000000000000000000000000000000 F
b1 v
#561
b0 v
#562
b0 B
b1 S
b1 v
#563
b0 v
#564
b1 v
#565
b0 v
#566
b1 v
#567
b0 v
#568
b1 v
#569
b0 v
#570
b1 v
#571
b0 v
#572
b1 v
#573
b0 v
#574
b1 v
#575
b0 v
#576
b1 v
#577
b0 v
#578
b1 v
#579
b0 v
#580
b1 v
#581
b0 v
#582
b1 v
#583
b0 v
#584
b1 v
#585
b0 v
#586
b1 v
#587
b0 v
#588
b1 v
#589
b0 v
#590
b1 v
#591
b0 v
#592
b1 v
#593
b0 v
#594
b1 v
#595
b0 v
#596
b1 v
#597
b0 v
#598
b1 v
#599
b0 v
#600
b1 v
#601
b0 v
#602
b1 v
#603
b0 v
#604
b1 v
#605
b0 v
#606
b1 v
#607
b0 v
#608
b1 v
#609
b0 v
#610
b1 v
#611
b0 v
#612
b1 v
#613
b0 v
#614
b1 v
#615
b0 v
#616
b1 v
#617
b0 v
#618
b1 v
#619
b0 v
#620
b1 v
#621
b0 v
#622
b1 v
#623
b0 v
#624
b1 v
#625
b0 v
#626
b1 v
#627
b0 v
#628
b1 v
#629
b0 v
#630
b1 v
#631
b0 v
#632
b1 v
#633
b0 v
#634
b1 v
#635
b0 v
#636
b1 v
#637
b0 v
#638
b1 R
b1 U
b1111111111111111111111111111111111111111111111111111111111111111111111111111111111111111111111111111111111111111111111111111111111111111111111111111111111111111111111111111111111111111111111111111111111111111111111111111111100010010001101000101011001111000 W
b11111111111111111111111111111111 ]
b1 a
b11111111111111111111111111111111 m
b1 r
b11111111111111111111111111111111 u
b1 v
#639
b0 v
#640
b000000000000000000000000000000000 F
b0 R
b0 S
b0 U
b0000000000000000000000000000000000000000000000000000000000000000000000000000000000000000000000000000000000000000000000000000000000000000000000000000000000000000000000000000000000000000000000000000000000000000000000000000000000000000000000000000000000000000 W
b010000000000000000000000000111 [
b00000000000000000000000000000000 ]
b0 a
b111 c
b00000000000000000000000000000000 m
b010000000000000000000000000111 p
b0 r
b00000000000000000000000000000000 u
b1 v
#641
b0 v
#642
b1 B
b001000000000000000000000000000000 F
b1 v
#643
b0 v
#644
b0 B
b1 S
b1 v
#645
b0 v
#646
b1 v
#647
b0 v
#648
b1 v
#649
b0 v
#650
b1 v
#651
b0 v
#652
b1 v
#653
b0 v
#654
b1 v
#655
b0 v
#656
b1 v
#657
b0 v
#658
b1 v
#659
b0 v
#660
b1 v
#661
b0 v
#662
b1 v
#663
b0 v
#664
b1 v
#665
b0 v
#666
b1 v
#667
b0 v
#668
b1 v
#669
b0 v
#670
b1 v
#671
b0 v
#672
b1 v
#673
b0 v
#674
b1 v
#675
b0 v
#676
b1 v
#677
b0 v
#678
b1 v
#679
b0 v
#680
b1 v
#681
b0 v
#682
b1 v
#683
b0 v
#684
b1 v
#685
b0 v
#686
b1 v
#687
b0 v
#688
b1 v
#689
b0 v
#690
b1 v
#691
b0 v
#692
b1 v
#693
b0 v
#694
b1 v
#695
b0 v
#696
b1 v
#697
b0 v
#698
b1 v
#699
b0 v
#700
b1 v
#701
b0 v
#702
b1 v
#703
b0 v
#704
b1 v
#705
b0 v
#706
b1 v
#707
b0 v
#708
b1 v
#709
b0 v
#710
b1 v
#711
b0 v
#712
b1 v
#713
b0 v
#714
b1 v
#715
b0 v
#716
b1 v
#717
b0 v
#718
b1 v
#719
b0 v
#720
b1 R
b1 U
b1111111111111111111111111111111111111111111111111111111111111111111111111111111111111111111111111111111111111111111111111111111111111111111111111111111111111111111111111111111111111111111111111111111111111111111111111111111100010010001101000101011001111000 W
b11111111111111111111111111111111 ]
b1 a
b11111111111111111111111111111111 m
b1 r
b11111111111111111111111111111111 u
b1 v
#721
b0 v
#722
b000000000000000000000000000000000 F
b0 R
b0 S
b0 U
b0000000000000000000000000000000000000000000000000000000000000000000000000000000000000000000000000000000000000000000000000000000000000000000000000000000000000000000000000000000000000000000000000000000000000000000000000000000000000000000000000000000000000000 W
b010000000000000000000000000000 [
b00000000000000000000000000000000 ]
b0 _
b0 `
b0 a
b000 c
b00000000000000000000000000000000 m
b0 n
b0 o
b010000000000000000000000000000 p
b0 r
b00000000000000000000000000000000 u
b1 v
#723
b0 v
#724
b1 v
#725
b0 v
#726
b1 v
#727
b0 v
#728
b1 v
#729
b0 v
#730
b1 v
#731
b0 v
#732
b000000000000000001001001101001 [
b000000000000000001001001101001 p
b1 v
#733
b0 v
#734
b000000000000000000000000000000 [
b10011000100110001001100010011000 \
b01111000001100100011000000100101 m
b000000000000000000000000000000 p
b10011000100110001001100010011000 t
b01111000001100100011000000100101 u
b1 v
#735
b0 v
#736
b000000000000000000001010101100 [
b00000000101000010000000010100001 \
b0011 ^
b1 b
b00001011000000000000000001101111 m
b000000000000000000001010101100 p
b1 q
b0011 s
b00000000101000010000000010100001 t
b00001011000000000000000001101111 u
b1 v
#737
b0 v
