ILA_runs_litescope/alveo board/cpu read write/mem_write_0x41000000_0xa5a5a5a5.vcd
$date
	2023-02-06 08:30
$end
$timescale 2000ps $end
$scope dumped_signals $end
$var wire 1 ! soc_usphbm2_axiinterface0_aw_valid $end
$var wire 1 " soc_usphbm2_axiinterface0_aw_ready $end
$var wire 1 # soc_usphbm2_axiinterface0_aw_first $end
$var wire 1 $ soc_usphbm2_axiinterface0_aw_last $end
$var wire 33 % soc_usphbm2_axiinterface0_aw_payload_addr $end
$var wire 2 & soc_usphbm2_axiinterface0_aw_payload_burst $end
$var wire 8 ' soc_usphbm2_axiinterface0_aw_payload_len $end
$var wire 3 ( soc_usphbm2_axiinterface0_aw_payload_size $end
$var wire 1 ) soc_usphbm2_axiinterface0_aw_payload_lock $end
$var wire 3 * soc_usphbm2_axiinterface0_aw_payload_prot $end
$var wire 4 + soc_usphbm2_axiinterface0_aw_payload_cache $end
$var wire 4 , soc_usphbm2_axiinterface0_aw_payload_qos $end
$var wire 4 - soc_usphbm2_axiinterface0_aw_payload_region $end
$var wire 6 . soc_usphbm2_axiinterface0_aw_param_id $end
$var wire 1 / soc_usphbm2_axiinterface0_aw_param_dest $end
$var wire 1 0 soc_usphbm2_axiinterface0_aw_param_user $end
$var wire 1 1 soc_usphbm2_axiinterface0_w_valid $end
$var wire 1 2 soc_usphbm2_axiinterface0_w_ready $end
$var wire 1 3 soc_usphbm2_axiinterface0_w_first $end
$var wire 1 4 soc_usphbm2_axiinterface0_w_last $end
$var wire 256 5 soc_usphbm2_axiinterface0_w_payload_data $end
$var wire 32 6 soc_usphbm2_axiinterface0_w_payload_strb $end
$var wire 1 7 soc_usphbm2_axiinterface0_w_param_id $end
$var wire 1 8 soc_usphbm2_axiinterface0_w_param_dest $end
$var wire 1 9 soc_usphbm2_axiinterface0_w_param_user $end
$var wire 1 : soc_usphbm2_axiinterface0_b_valid $end
$var wire 1 ; soc_usphbm2_axiinterface0_b_ready $end
$var wire 1 < soc_usphbm2_axiinterface0_b_first $end
$var wire 1 = soc_usphbm2_axiinterface0_b_last $end
$var wire 2 > soc_usphbm2_axiinterface0_b_payload_resp $end
$var wire 6 ? soc_usphbm2_axiinterface0_b_param_id $end
$var wire 1 @ soc_usphbm2_axiinterface0_b_param_dest $end
$var wire 1 A soc_usphbm2_axiinterface0_b_param_user $end
$var wire 1 B soc_usphbm2_axiinterface0_ar_valid $end
$var wire 1 C soc_usphbm2_axiinterface0_ar_ready $end
$var wire 1 D soc_usphbm2_axiinterface0_ar_first $end
$var wire 1 E soc_usphbm2_axiinterface0_ar_last $end
$var wire 33 F soc_usphbm2_axiinterface0_ar_payload_addr $end
$var wire 2 G soc_usphbm2_axiinterface0_ar_payload_burst $end
$var wire 8 H soc_usphbm2_axiinterface0_ar_payload_len $end
$var wire 3 I soc_usphbm2_axiinterface0_ar_payload_size $end
$var wire 1 J soc_usphbm2_axiinterface0_ar_payload_lock $end
$var wire 3 K soc_usphbm2_axiinterface0_ar_payload_prot $end
$var wire 4 L soc_usphbm2_axiinterface0_ar_payload_cache $end
$var wire 4 M soc_usphbm2_axiinterface0_ar_payload_qos $end
$var wire 4 N soc_usphbm2_axiinterface0_ar_payload_region $end
$var wire 6 O soc_usphbm2_axiinterface0_ar_param_id $end
$var wire 1 P soc_usphbm2_axiinterface0_ar_param_dest $end
$var wire 1 Q soc_usphbm2_axiinterface0_ar_param_user $end
$var wire 1 R soc_usphbm2_axiinterface0_r_valid $end
$var wire 1 S soc_usphbm2_axiinterface0_r_ready $end
$var wire 1 T soc_usphbm2_axiinterface0_r_first $end
$var wire 1 U soc_usphbm2_axiinterface0_r_last $end
$var wire 2 V soc_usphbm2_axiinterface0_r_payload_resp $end
$var wire 256 W soc_usphbm2_axiinterface0_r_payload_data $end
$var wire 6 X soc_usphbm2_axiinterface0_r_param_id $end
$var wire 1 Y soc_usphbm2_axiinterface0_r_param_dest $end
$var wire 1 Z soc_usphbm2_axiinterface0_r_param_user $end
$var wire 30 [ soc_interface0_adapted_interface_adr $end
$var wire 32 \ soc_interface0_adapted_interface_dat_w $end
$var wire 32 ] soc_interface0_adapted_interface_dat_r $end
$var wire 4 ^ soc_interface0_adapted_interface_sel $end
$var wire 1 _ soc_interface0_adapted_interface_cyc $end
$var wire 1 ` soc_interface0_adapted_interface_stb $end
$var wire 1 a soc_interface0_adapted_interface_ack $end
$var wire 1 b soc_interface0_adapted_interface_we $end
$var wire 3 c soc_interface0_adapted_interface_cti $end
$var wire 2 d soc_interface0_adapted_interface_bte $end
$var wire 1 e soc_interface0_adapted_interface_err $end
$var wire 1 f soc_cpu_ibus_stb $end
$var wire 1 g soc_cpu_ibus_cyc $end
$var wire 30 h soc_cpu_ibus_adr $end
$var wire 1 i soc_cpu_ibus_we $end
$var wire 1 j soc_cpu_ibus_ack $end
$var wire 4 k soc_cpu_ibus_sel $end
$var wire 32 l soc_cpu_ibus_dat_w $end
$var wire 32 m soc_cpu_ibus_dat_r $end
$var wire 1 n soc_cpu_dbus_stb $end
$var wire 1 o soc_cpu_dbus_cyc $end
$var wire 30 p soc_cpu_dbus_adr $end
$var wire 1 q soc_cpu_dbus_we $end
$var wire 1 r soc_cpu_dbus_ack $end
$var wire 4 s soc_cpu_dbus_sel $end
$var wire 32 t soc_cpu_dbus_dat_w $end
$var wire 32 u soc_cpu_dbus_dat_r $end
$var wire 1 v scope_clk $end
$var wire 1 w scope_trig $end
$unscope  $end
$enddefinitions  $end
$dumpvars
bx !
bx "
bx #
bx $
bxxxxxxxxxxxxxxxxxxxxxxxxxxxxxxxxx %
bxx &
bxxxxxxxx '
bxxx (
bx )
bxxx *
bxxxx +
bxxxx ,
bxxxx -
bxxxxxx .
bx /
bx 0
bx 1
bx 2
bx 3
bx 4
bxxxxxxxxxxxxxxxxxxxxxxxxxxxxxxxxxxxxxxxxxxxxxxxxxxxxxxxxxxxxxxxxxxxxxxxxxxxxxxxxxxxxxxxxxxxxxxxxxxxxxxxxxxxxxxxxxxxxxxxxxxxxxxxxxxxxxxxxxxxxxxxxxxxxxxxxxxxxxxxxxxxxxxxxxxxxxxxxxxxxxxxxxxxxxxxxxxxxxxxxxxxxxxxxxxxxxxxxxxxxxxxxxxxxxxxxxxxxxxxxxxxxxxxxxxxxxxxx 5
bxxxxxxxxxxxxxxxxxxxxxxxxxxxxxxxx 6
bx 7
bx 8
bx 9
bx :
bx ;
bx <
bx =
bxx >
bxxxxxx ?
bx @
bx A
bx B
bx C
bx D
bx E
bxxxxxxxxxxxxxxxxxxxxxxxxxxxxxxxxx F
bxx G
bxxxxxxxx H
bxxx I
bx J
bxxx K
bxxxx L
bxxxx M
bxxxx N
bxxxxxx O
bx P
bx Q
bx R
bx S
bx T
bx U
bxx V
bxxxxxxxxxxxxxxxxxxxxxxxxxxxxxxxxxxxxxxxxxxxxxxxxxxxxxxxxxxxxxxxxxxxxxxxxxxxxxxxxxxxxxxxxxxxxxxxxxxxxxxxxxxxxxxxxxxxxxxxxxxxxxxxxxxxxxxxxxxxxxxxxxxxxxxxxxxxxxxxxxxxxxxxxxxxxxxxxxxxxxxxxxxxxxxxxxxxxxxxxxxxxxxxxxxxxxxxxxxxxxxxxxxxxxxxxxxxxxxxxxxxxxxxxxxxxxxxx W
bxxxxxx X
bx Y
bx Z
bxxxxxxxxxxxxxxxxxxxxxxxxxxxxxx [
bxxxxxxxxxxxxxxxxxxxxxxxxxxxxxxxx \
bxxxxxxxxxxxxxxxxxxxxxxxxxxxxxxxx ]
bxxxx ^
bx _
bx `
bx a
bx b
bxxx c
bxx d
bx e
bx f
bx g
bxxxxxxxxxxxxxxxxxxxxxxxxxxxxxx h
bx i
bx j
bxxxx k
bxxxxxxxxxxxxxxxxxxxxxxxxxxxxxxxx l
bxxxxxxxxxxxxxxxxxxxxxxxxxxxxxxxx m
bx n
bx o
bxxxxxxxxxxxxxxxxxxxxxxxxxxxxxx p
bx q
bx r
bxxxx s
bxxxxxxxxxxxxxxxxxxxxxxxxxxxxxxxx t
bxxxxxxxxxxxxxxxxxxxxxxxxxxxxxxxx u
bx v
bx w
$end
#0
b0 !
b1 "
b0 #
b0 $
b000000000000000000000000000000000 %
b01 &
b00000000 '
b101 (
b0 )
b000 *
b0011 +
b0000 ,
b0000 -
b000000 .
b0 /
b0 0
b0 1
b1 2
b0 3
b1 4
b0000000000000000000000000000000000000000000000000000000000000000000000000000000000000000000000000000000000000000000000000000000000000000000000000000000000000000000000000000000000000000000000000000000000000000000000000000000000000000000000000000000000000000 5
b00000000000000000000000000000000 6
b0 7
b0 8
b0 9
b0 :
b0 ;
b0 <
b0 =
b00 >
b000000 ?
b0 @
b0 A
b0 B
b1 C
b0 D
b0 E
b000000000000000000000000000000000 F
b01 G
b00000000 H
b101 I
b0 J
b000 K
b0011 L
b0000 M
b0000 N
b000000 O
b0 P
b0 Q
b0 R
b0 S
b0 T
b0 U
b00 V
b0000000000000000000000000000000000000000000000000000000000000000000000000000000000000000000000000000000000000000000000000000000000000000000000000000000000000000000000000000000000000000000000000000000000000000000000000000000000000000000000000000000000000000 W
b000000 X
b0 Y
b0 Z
b000000000000000000001111110000 [
b00000000000000000000000000000000 \
b00000000000000000000000000000000 ]
b1111 ^
b0 _
b0 `
b0 a
b0 b
b010 c
b00 d
b0 e
b0 f
b0 g
b000000000000000000001111110000 h
b0 i
b0 j
b1111 k
b00000000000000000000000000000000 l
b00000000000010101000010110010011 m
b0 n
b0 o
b000000000000000000000000000001 p
b0 q
b0 r
b1111 s
b00000000000000000000000000001001 t
b00000000000010101000010110010011 u
b1 v
b0 w
#1
b0 v
#2
b111111111111111111111111111101 p
b1 q
b1110 s
b00000000000000000000000000010000 t
b1 v
#3
b0 v
#4
b000000000000000000000000000000 p
b1100 s
b1 v
#5
b0 v
#6
b000010100101101001011010011010 p
b0100 s
b00010000000100000001000000010000 t
b1 v
#7
b0 v
#8
b000100000000000000011111101111 p
b1100 s
b00000000000000000000000000000000 t
b1 v
#9
b0 v
#10
b000000000000000000000000000000 p
b0011 s
b1 v
#11
b0 v
#12
b101001011010010110100101101001 p
b0010 s
b00000101000001010000010100000101 t
b1 v
#13
b0 v
#14
b000000000000000000000000000000 p
b1110 s
b10100101101001011010010110100000 t
b1 v
#15
b0 v
#16
b101001011010010110100101101001 p
b0 q
b1111 s
b00000000000000000000000000000000 t
b1 v
#17
b0 v
#18
b000000000000000000000000000000 p
b1 q
b0001 s
b1 v
#19
b0 v
#20
b0 q
b1111 s
b00010000000000000001111100100000 t
b1 v
#21
b0 v
#22
b000100000000000000011111101111 p
b00000000000000000000000000000000 t
b1 v
#23
b0 v
#24
b1 v
#25
b0 v
#26
b1 v
#27
b0 v
#28
b1 v
#29
b0 v
#30
b000100000000000000011111110000 p
b11001000110010001100100011001000 t
b1 v
#31
b0 v
#32
b000000000000000000101010000011 p
b1 q
b00010000000000000001111100101100 t
b1 v
b1 w
#33
b0 v
#34
b000100000000000000011111110000 p
b0 q
b00000000000000000000000000000000 t
b1 v
#35
b0 v
#36
b000000000000000000000000001110 p
b1 q
b1110 s
b1 v
#37
b0 v
#38
b111111111111111111111111111111 p
b0 q
b1111 s
b00001001000010010000100100001001 t
b1 v
#39
b0 v
#40
b00000000000000000000000000000000 t
b1 v
#41
b0 v
#42
b111111111111111111111111110110 p
b1 v
#43
b0 v
#44
b111111111111111111111111110100 p
b10111111101111111011111110111111 t
b1 v
#45
b0 v
#46
b000000000000000000000000110100 p
b00000000000000000000000000001001 t
b1 v
#47
b0 v
#48
b000000000000000000000000110000 p
b1 q
b00000000000000000000000000010000 t
b1 v
#49
b0 v
#50
b000000000000000000000000000000 p
b1110 s
b1 v
#51
b0 v
#52
b101001011010010110100101101101 p
b0010 s
b00010000000100000001000000010000 t
b1 v
#53
b0 v
#54
b000100000000000000011111101111 p
b1000 s
b00000000000000000000000000000000 t
b1 v
#55
b0 v
#56
b000000000000000000000000000000 p
b0 q
b1111 s
b00000000000000000000111111001000 t
b1 v
#57
b0 v
#58
b1 q
b0001 s
b00000000000000000000000000000000 t
b1 v
#59
b0 v
#60
b010110100101101001011010010110 p
b1000 s
b10100101101001011010010110100101 t
b1 v
#61
b0 v
#62
b000000000000000000000000000000 p
b0 q
b1111 s
b00010000000000000001111100100000 t
b1 v
#63
b0 v
#64
b1 q
b0001 s
b00000000000000000000000000000000 t
b1 v
#65
b0 v
#66
b0 q
b1111 s
b00010000000000000001111100100000 t
b1 v
#67
b0 v
#68
b1 q
b0001 s
b00000000000000000000000000000000 t
b1 v
#69
b0 v
#70
b000000000000000001011010010010 p
b0 q
b1111 s
b1 v
#71
b0 v
#72
b000100000000000000011111001011 p
b1 q
b0001 s
b1 v
#73
b0 v
#74
b1 n
b1 o
b1111 s
b00010000000000000001111110111111 t
b1 v
#75
b0 v
#76
b000100000000000000011111001011 [
b00010000000000000001111110111111 \
b1 `
b1 b
b000 c
b1 v
#77
b0 v
#78
b00010000000000000001111110111111 m
b1 r
b00010000000000000001111110111111 u
b1 v
#79
b0 v
#80
b000000000000000000000000000001 [
b00000000000000000000000000000000 \
b0 `
b0 b
b0 n
b0 o
b000000000000000000000000000001 p
b0 q
b0 r
b00000000000000000000000000000000 t
b1 v
#81
b0 v
#82
b000000000000000000000000001000 [
b00000000000000000000000000010011 m
b000000000000000000000000001000 p
b00000000000000000000000000010011 u
b1 v
#83
b0 v
#84
b000100000000000000011111001011 [
b00000000000000000000000000111001 \
b11111110000100010010111000100011 m
b000100000000000000011111001011 p
b00000000000000000000000000111001 t
b11111110000100010010111000100011 u
b1 v
#85
b0 v
#86
b101001011010010110100101101001 [
b00000000000000000000000000000000 \
b00010000000000000001111110111111 m
b101001011010010110100101101001 p
b00000000000000000000000000000000 t
b00010000000000000001111110111111 u
b1 v
#87
b0 v
#88
b000000000000000001001111110100 [
b00000000000000000000000000000000 m
b000000000000000001001111110100 p
b00000000000000000000000000000000 u
b1 v
#89
b0 v
#90
b000000000000000001001100101001 [
b01100000011000000110000001100000 \
b01101111011000110110111001001001 m
b000000000000000001001100101001 p
b01100000011000000110000001100000 t
b01101111011000110110111001001001 u
b1 v
#91
b0 v
#92
b000100000000000000011111101111 [
b00000000000000000000000000000000 \
b000100000000000000011111101111 p
b00000000000000000000000000000000 t
b1 v
#93
b0 v
#94
b1000 ^
b1 b
b00000000001101010110000100110101 m
b1 q
b1000 s
b00000000001101010110000100110101 u
b1 v
#95
b0 v
#96
b1 v
#97
b0 v
#98
b000000000000000000000000000000 [
b0011 ^
b000000000000000000000000000000 p
b0011 s
b1 v
#99
b0 v
#100
b00100000001000000010000000100000 \
b1111 ^
b0 b
b00001011000000000000000001101111 m
b0 q
b1111 s
b00100000001000000010000000100000 t
b00001011000000000000000001101111 u
b1 v
#101
b0 v
#102
b000000000000000000001111011000 [
b00001111110010000000111111001000 \
b0011 ^
b1 b
b000000000000000000001111011000 p
b1 q
b0011 s
b00001111110010000000111111001000 t
b1 v
#103
b0 v
#104
b000100000000000000011111010001 [
b00000000000000000000000000000000 \
b1111 ^
b00000010110000010010000010000011 m
b000100000000000000011111010001 p
b1111 s
b00000000000000000000000000000000 t
b00000010110000010010000010000011 u
b1 v
#105
b0 v
#106
b000000000000000000000000000000 [
b00100000001000000010000000100000 \
b0 b
b00010000000000000001111110100000 m
b000000000000000000000000000000 p
b0 q
b00100000001000000010000000100000 t
b00010000000000000001111110100000 u
b1 v
#107
b0 v
#108
b00000010000000100000001000000010 \
b0001 ^
b1 b
b00001011000000000000000001101111 m
b1 q
b0001 s
b00000010000000100000001000000010 t
b00001011000000000000000001101111 u
b1 v
#109
b0 v
#110
b000100000000000000011111100010 [
b01000001000000000000000000000000 \
b1111 ^
b0 b
b1 f
b1 g
b000000000000000000010000011000 h
b000100000000000000011111100010 p
b0 q
b1111 s
b01000001000000000000000000000000 t
b1 v
#111
b0 v
#112
b000000000000000000010000011000 [
b00000000000000000000000000000000 \
b1 `
b010 c
b00000000000000000000000000000000 m
b000000000000000000000000000000 p
b00000000000000000000000000000000 t
b00000000000000000000000000000000 u
b1 v
#113
b0 v
#114
b1 j
b00000000000100000000101000010011 m
b000100000000000000011111001011 p
b00000000000100000000101000010011 u
b1 v
#115
b0 v
#116
b000000000000000000010000011001 [
b000000000000000000010000011001 h
b0 j
b000100000000000000011110111000 p
b1 v
#117
b0 v
#118
b1 j
b00000000010000000000011100010011 m
b111111111111111111111111110000 p
b00000000010000000000011100010011 u
b1 v
#119
b0 v
#120
b000000000000000000010000011010 [
b000000000000000000010000011010 h
b0 j
b000000000000000000010000011001 p
b1 q
b0001 s
b1 v
#121
b0 v
#122
b1 j
b11111100010111111111000001101111 m
b000100000000000000011110111000 p
b0 q
b1111 s
b11111100010111111111000001101111 u
b1 v
#123
b0 v
#124
b000000000000000000010000011011 [
b000000000000000000010000011011 h
b0 j
b1 v
#125
b0 v
#126
b1 j
b00000001001001111001000000100011 m
b00000001001001111001000000100011 u
b1 v
#127
b0 v
#128
b000000000000000000010000011100 [
b000000000000000000010000011100 h
b0 j
b1 v
#129
b0 v
#130
b1 j
b00000000001001111000011110010011 m
b000000000000000000000000000000 p
b11001000110010001100100011001000 t
b00000000001001111000011110010011 u
b1 v
#131
b0 v
#132
b000000000000000000010000011101 [
b000000000000000000010000011101 h
b0 j
b1 v
#133
b0 v
#134
b1 j
b11111110010111111111000001101111 m
b11111110010111111111000001101111 u
b1 v
#135
b0 v
#136
b000000000000000000010000011110 [
b000000000000000000010000011110 h
b0 j
b1 v
#137
b0 v
#138
b1 j
b00000001001001111010000000100011 m
b00000001001001111010000000100011 u
b1 v
#139
b0 v
#140
b000000000000000000010000011111 [
b111 c
b000000000000000000010000011111 h
b0 j
b1 v
#141
b0 v
#142
b1 j
b00000000010001111000011110010011 m
b00000000010001111000011110010011 u
b1 v
#143
b0 v
#144
b000000000000000000010000011000 [
b0 `
b010 c
b0 f
b0 g
b000000000000000000010000011000 h
b0 j
b1 v
#145
b0 v
#146
b00000000000100000000101000010011 m
b00000000000100000000101000010011 u
b1 v
#147
b0 v
#148
b1 v
#149
b0 v
#150
b1 v
#151
b0 v
#152
b1 v
#153
b0 v
#154
b1 v
#155
b0 v
#156
b1 v
#157
b0 v
#158
b1 v
#159
b0 v
#160
b000000000000000000010000001000 [
b1 `
b1 f
b1 g
b000000000000000000010000001000 h
b000000000000000000000000000001 p
b00000000000000000000000000000000 t
b1 v
#161
b0 v
#162
b1 j
b00000000000010101000010110010011 m
b000000000000000000010000011011 p
b1 q
b00000000000000000000000000101010 t
b00000000000010101000010110010011 u
b1 v
#163
b0 v
#164
b000000000000000000010000001001 [
b000000000000000000010000001001 h
b0 j
b000000000000000000000000000000 p
b1100 s
b10100101101001011010010110100101 t
b1 v
#165
b0 v
#166
b1 j
b00001110010100000001000011101111 m
b000100000000000000011111000100 p
b1111 s
b00000000000000000000000000101110 t
b00001110010100000001000011101111 u
b1 v
#167
b0 v
#168
b000000000000000000010000001010 [
b000000000000000000010000001010 h
b0 j
b00000000000000000100110010100100 t
b1 v
#169
b0 v
#170
b1 j
b00000000000001010000011100010011 m
b000100000000000000011111000011 p
b00000000000001010000011100010011 u
b1 v
#171
b0 v
#172
b000000000000000000010000001011 [
b000000000000000000010000001011 h
b0 j
b000100000000000000011111000100 p
b00000000000000000000000000101110 t
b1 v
#173
b0 v
#174
b1 j
b00000000000001000000011110010011 m
b00000000000001000000011110010011 u
b1 v
#175
b0 v
#176
b000000000000000000010000001100 [
b000000000000000000010000001100 h
b0 j
b1 v
#177
b0 v
#178
b1 j
b00000000000000000000011010010011 m
b00000000000000000000011010010011 u
b1 v
#179
b0 v
#180
b000000000000000000010000001101 [
b000000000000000000010000001101 h
b0 j
b1 v
#181
b0 v
#182
b1 j
b00000000001000000000011000010011 m
b00000000001000000000011000010011 u
b1 v
#183
b0 v
#184
b000000000000000000010000001110 [
b000000000000000000010000001110 h
b0 j
b1 v
#185
b0 v
#186
b1 j
b00000000010000000000010110010011 m
b00000000010000000000010110010011 u
b1 v
#187
b0 v
#188
b000000000000000000010000001111 [
b111 c
b000000000000000000010000001111 h
b0 j
b1 v
#189
b0 v
#190
b1 j
b00000000000100000000010100010011 m
b010000010000000000000000000000 p
b0 q
b00000000000000000000000000000000 t
b00000000000100000000010100010011 u
b1 v
#191
b0 v
#192
b000000000000000000010000001000 [
b0 `
b010 c
b0 f
b0 g
b000000000000000000010000001000 h
b0 j
b1 v
#193
b0 v
#194
b00000000000010101000010110010011 m
b00000000000010101000010110010011 u
b1 v
#195
b0 v
#196
b1 v
#197
b0 v
#198
b1 v
#199
b0 v
#200
b1 v
#201
b0 v
#202
b1 v
#203
b0 v
#204
b1 v
#205
b0 v
#206
b1 v
#207
b0 v
#208
b000000000000000000000000000000 p
b1 v
#209
b0 v
#210
b000000000000000000010000010000 [
b1 `
b1 f
b1 g
b000000000000000000010000010000 h
b00100000001000000010000000100000 t
b1 v
#211
b0 v
#212
b1 j
b11110011010001101000000011100011 m
b000000000000000000000000000001 p
b00000000000000000000000000000000 t
b11110011010001101000000011100011 u
b1 v
#213
b0 v
#214
b000000000000000000010000010001 [
b000000000000000000010000010001 h
b0 j
b000000000000000000000000000000 p
b11001000110010001100100011001000 t
b1 v
#215
b0 v
#216
b1 j
b00000010110001110000010001100011 m
b000100000000000000011110111111 p
b1 q
b00000000000000000000000000000100 t
b00000010110001110000010001100011 u
b1 v
#217
b0 v
#218
b000000000000000000010000010010 [
b000000000000000000010000010010 h
b0 j
b01000001000000000000000000000000 t
b1 v
#219
b0 v
#220
b1 j
b00000010101101110000100001100011 m
b000100000000000000011110111110 p
b00000010101101110000100001100011 u
b1 v
#221
b0 v
#222
b000000000000000000010000010011 [
b000000000000000000010000010011 h
b0 j
b000100000000000000011110111111 p
b00000000000000000000000000000100 t
b1 v
#223
b0 v
#224
b1 j
b00000010101001110001110001100011 m
b00000010101001110001110001100011 u
b1 v
#225
b0 v
#226
b000000000000000000010000010100 [
b000000000000000000010000010100 h
b0 j
b1 v
#227
b0 v
#228
b1 j
b00000001001001111000000000100011 m
b111111111111111111111111111111 p
b1000 s
b00000001000000010000000100000001 t
b00000001001001111000000000100011 u
b1 v
#229
b0 v
#230
b000000000000000000010000010101 [
b000000000000000000010000010101 h
b0 j
b1 v
#231
b0 v
#232
b1 j
b00000000000101111000011110010011 m
b00000000000101111000011110010011 u
b1 v
#233
b0 v
#234
b000000000000000000010000010110 [
b000000000000000000010000010110 h
b0 j
b1 v
#235
b0 v
#236
b1 j
b00000000000101101000011010010011 m
b00000000000101101000011010010011 u
b1 v
#237
b0 v
#238
b000000000000000000010000010111 [
b111 c
b000000000000000000010000010111 h
b0 j
b1 v
#239
b0 v
#240
b1 j
b11111110010111111111000001101111 m
b11111110010111111111000001101111 u
b1 v
#241
b0 v
#242
b000000000000000000010000010000 [
b0 `
b010 c
b0 f
b0 g
b000000000000000000010000010000 h
b0 j
b1 v
#243
b0 v
#244
b11110011010001101000000011100011 m
b11110011010001101000000011100011 u
b1 v
#245
b0 v
#246
b1 v
#247
b0 v
#248
b1 v
#249
b0 v
#250
b1 v
#251
b0 v
#252
b1 v
#253
b0 v
#254
b000000000000000000001111011000 [
b1 `
b1 f
b1 g
b000000000000000000001111011000 h
b1 v
#255
b0 v
#256
b1 j
b00000010110000010010000010000011 m
b00000010110000010010000010000011 u
b1 v
#257
b0 v
#258
b000000000000000000001111011001 [
b000000000000000000001111011001 h
b0 j
b000000000000000000000000000000 p
b0100 s
b00000010000000100000001000000010 t
b1 v
#259
b0 v
#260
b1 j
b00000010100000010010010000000011 m
b000100000000000000011111010001 p
b1111 s
b00000000000000000000000000000000 t
b00000010100000010010010000000011 u
b1 v
#261
b0 v
#262
b000000000000000000001111011010 [
b000000000000000000001111011010 h
b0 j
b1 v
#263
b0 v
#264
b1 j
b00000010010000010010010010000011 m
b000100000000000000011111010000 p
b00000010010000010010010010000011 u
b1 v
#265
b0 v
#266
b000000000000000000001111011011 [
b000000000000000000001111011011 h
b0 j
b000000000000000000000000000000 p
b0100 s
b00000010000000100000001000000010 t
b1 v
#267
b0 v
#268
b1 j
b00000010000000010010100100000011 m
b00000010000000010010100100000011 u
b1 v
#269
b0 v
#270
b000000000000000000001111011100 [
b000000000000000000001111011100 h
b0 j
b1 v
#271
b0 v
#272
b1 j
b00000001110000010010100110000011 m
b00000001110000010010100110000011 u
b1 v
#273
b0 v
#274
b000000000000000000001111011101 [
b000000000000000000001111011101 h
b0 j
b1 v
#275
b0 v
#276
b1 j
b00000001100000010010101000000011 m
b00000001100000010010101000000011 u
b1 v
#277
b0 v
#278
b000000000000000000001111011110 [
b000000000000000000001111011110 h
b0 j
b1 v
#279
b0 v
#280
b1 j
b00000001010000010010101010000011 m
b00000001010000010010101010000011 u
b1 v
#281
b0 v
#282
b000000000000000000001111011111 [
b111 c
b000000000000000000001111011111 h
b0 j
b1 v
#283
b0 v
#284
b1 j
b00000011000000010000000100010011 m
b00000011000000010000000100010011 u
b1 v
#285
b0 v
#286
b000000000000000000001111011000 [
b0 `
b010 c
b0 f
b0 g
b000000000000000000001111011000 h
b0 j
b1 v
#287
b0 v
#288
b00000010110000010010000010000011 m
b00000010110000010010000010000011 u
b1 v
#289
b0 v
#290
b1 v
#291
b0 v
#292
b1 v
#293
b0 v
#294
b1 v
#295
b0 v
#296
b1 v
#297
b0 v
#298
b1 v
#299
b0 v
#300
b1 v
#301
b0 v
#302
b0001 s
b00000100000001000000010000000100 t
b1 v
#303
b0 v
#304
b1000 s
b00000000000000010000000000000001 t
b1 v
#305
b0 v
#306
b010000010000000000000000000000 p
b0001 s
b10100101101001011010010110100101 t
b1 v
#307
b0 v
#308
b000000000000000000010000100000 [
b1 `
b1 f
b1 g
b000000000000000000010000100000 h
b0 q
b1111 s
b11001000110010001100100011001000 t
b1 v
#309
b0 v
#310
b1 j
b11111101100111111111000001101111 m
b1 n
b1 o
b1 q
b10100101101001011010010110100101 t
b11111101100111111111000001101111 u
b1 v
#311
b0 v
#312
b000000000000000000010000100001 [
b000000000000000000010000100001 h
b0 j
b1 v
#313
b0 v
#314
b1 j
b00000000000000000100010100010111 m
b00000000000000000100010100010111 u
b1 v
#315
b0 v
#316
b000000000000000000010000100010 [
b000000000000000000010000100010 h
b0 j
b1 v
#317
b0 v
#318
b1 j
b11000100000001010000010100010011 m
b11000100000001010000010100010011 u
b1 v
#319
b0 v
#320
b000000000000000000010000100011 [
b000000000000000000010000100011 h
b0 j
b1 v
#321
b0 v
#322
b1 j
b11101101000111111111000001101111 m
b11101101000111111111000001101111 u
b1 v
#323
b0 v
#324
b000000000000000000010000100100 [
b000000000000000000010000100100 h
b0 j
b1 v
#325
b0 v
#326
b1 j
b11111100000000010000000100010011 m
b11111100000000010000000100010011 u
b1 v
#327
b0 v
#328
b000000000000000000010000100101 [
b000000000000000000010000100101 h
b0 j
b1 v
#329
b0 v
#330
b1 j
b00000010000100010010111000100011 m
b00000010000100010010111000100011 u
b1 v
#331
b0 v
#332
b000000000000000000010000100110 [
b000000000000000000010000100110 h
b0 j
b1 v
#333
b0 v
#334
b1 j
b00000010100000010010110000100011 m
b00000010100000010010110000100011 u
b1 v
#335
b0 v
#336
b000000000000000000010000100111 [
b111 c
b000000000000000000010000100111 h
b0 j
b1 v
#337
b0 v
#338
b1 j
b00000010100100010010101000100011 m
b00000010100100010010101000100011 u
b1 v
#339
b0 v
#340
b000000000000000000010000100000 [
b0 `
b010 c
b0 f
b0 g
b000000000000000000010000100000 h
b0 j
b1 v
#341
b0 v
#342
b010000010000000000000000000000 [
b10100101101001011010010110100101 \
b1 _
b1 `
b1 b
b000 c
b11111101100111111111000001101111 m
b11111101100111111111000001101111 u
b1 v
#343
b0 v
#344
b1 !
b001000001000000000000000000000000 %
b1 1
b0000000000000000000000000000000000000000000000000000000000000000000000000000000000000000000000000000000000000000000000000000000000000000000000000000000000000000000000000000000000000000000000000000000000000000000000000000000010100101101001011010010110100101 5
b00000000000000000000000000001111 6
b00000000000000000000000000000000 m
b00000000000000000000000000000000 u
b1 v
#345
b0 v
#346
b0 !
b0 1
b1 ;
b1 v
#347
b0 v
#348
b1 v
#349
b0 v
#350
b1 v
#351
b0 v
#352
b1 v
#353
b0 v
#354
b1 v
#355
b0 v
#356
b1 v
#357
b0 v
#358
b1 v
#359
b0 v
#360
b1 v
#361
b0 v
#362
b1 v
#363
b0 v
#364
b1 v
#365
b0 v
#366
b1 v
#367
b0 v
#368
b1 v
#369
b0 v
#370
b1 v
#371
b0 v
#372
b1 v
#373
b0 v
#374
b1 v
#375
b0 v
#376
b1 :
b1 a
b1 r
b1 v
#377
b0 v
#378
b000000000000000000000000000000000 %
b0000000000000000000000000000000000000000000000000000000000000000000000000000000000000000000000000000000000000000000000000000000000000000000000000000000000000000000000000000000000000000000000000000000000000000000000000000000000000000000000000000000000000000 5
b00000000000000000000000000000000 6
b0 :
b0 ;
b000100000000000000011111010000 [
b00000000000000000000000000000010 \
b0 _
b0 a
b0 b
b010 c
b000100000000000000011111010000 p
b0 q
b0 r
b00000000000000000000000000000010 t
b1 v
#379
b0 v
#380
b00000000000000000000000000000010 m
b1 r
b00000000000000000000000000000010 u
b1 v
#381
b0 v
#382
b000100000000000000011111010001 [
b000100000000000000011111010001 p
b0 r
b1 v
#383
b0 v
#384
b00010000000000000001111110100000 m
b1 r
b00010000000000000001111110100000 u
b1 v
#385
b0 v
#386
b000100000000000000011111010010 [
b000100000000000000011111010010 p
b0 r
b1 v
#387
b0 v
#388
b00000000000000000110001001000000 m
b1 r
b00000000000000000110001001000000 u
b1 v
#389
b0 v
#390
b000100000000000000011111010011 [
b000100000000000000011111010011 p
b0 r
b1 v
#391
b0 v
